duration,x^0,x^1,x^2,x^3,x^4,x^5,x^6,x^7,y^0,y^1,y^2,y^3,y^4,y^5,y^6,y^7,z^0,z^1,z^2,z^3,z^4,z^5,z^6,z^7,yaw^0,yaw^1,yaw^2,yaw^3,yaw^4,yaw^5,yaw^6,yaw^7
1.96,0.0,0.0,0.015211,0.001021,-1.7e-05,1.5e-05,-6e-06,1e-06,0.0,-0.0,-0.073154,0.011024,-3e-06,1e-06,-0.0,-0.0,0.0,0.0,0.0,0.0,0.0,0.0,0.0,0.0,0.0,0.0,0.0,0.0,0.0,0.0,0.0,0.0
2.0,0.066059,0.071344,0.004152,-0.042013,0.060376,-0.040797,0.013906,-0.001885,-0.198041,-0.159731,-0.022666,-0.030912,0.053182,-0.035952,0.012259,-0.001662,0.0,0.0,0.0,0.0,0.0,0.0,0.0,0.0,0.0,0.0,0.0,0.0,0.0,0.0,0.0,0.0
2.0,0.198499,0.07754,0.011132,-0.045737,0.068103,-0.046229,0.015807,-0.002147,-0.583167,-0.186523,0.007625,-0.067585,0.101889,-0.069035,0.023576,-0.0032,0.0,0.0,0.0,0.0,0.0,0.0,0.0,0.0,0.0,0.0,0.0,0.0,0.0,0.0,0.0,0.0
2.0,0.379323,0.127288,0.045879,-0.009958,-0.002386,0.001441,-0.000451,5.7e-05,-0.945996,-0.136403,0.052414,-0.051248,0.058933,-0.040142,0.013757,-0.001872,0.0,0.0,0.0,0.0,0.0,0.0,0.0,0.0,0.0,0.0,0.0,0.0,0.0,0.0,0.0,0.0
2.0,0.724143,0.16918,-0.00864,0.043766,-0.062715,0.042372,-0.014443,0.001958,-1.119892,-0.064539,0.017947,0.007207,-0.01936,0.012898,-0.004354,0.000586,0.0,0.0,0.0,0.0,0.0,0.0,0.0,0.0,0.0,0.0,0.0,0.0,0.0,0.0,0.0,0.0
2.0,1.056773,0.14682,-0.015935,0.051355,-0.069746,0.047355,-0.016195,0.002201,-1.220212,-0.067387,-0.011933,0.04669,-0.065335,0.044226,-0.015093,0.002048,0.0,0.0,0.0,0.0,0.0,0.0,0.0,0.0,0.0,0.0,0.0,0.0,0.0,0.0,0.0,0.0
2.0,1.342084,0.132476,-0.010313,0.051917,-0.071221,0.048412,-0.016568,0.002252,-1.363226,-0.087831,-0.013822,0.055204,-0.075494,0.051295,-0.017551,0.002386,0.0,0.0,0.0,0.0,0.0,0.0,0.0,0.0,0.0,0.0,0.0,0.0,0.0,0.0,0.0,0.0
2.0,1.618674,0.135956,-0.005983,0.041034,-0.059024,0.04023,-0.013811,0.001883,-1.536954,-0.093743,-0.015913,0.037222,-0.051329,0.034987,-0.011997,0.001633,0.0,0.0,0.0,0.0,0.0,0.0,0.0,0.0,0.0,0.0,0.0,0.0,0.0,0.0,0.0,0.0
2.0,1.895103,0.125936,-0.014921,0.028008,-0.03602,0.024388,-0.008321,0.001128,-1.75075,-0.126139,-0.026785,-0.000187,0.010753,-0.007222,0.002457,-0.000333,0.0,0.0,0.0,0.0,0.0,0.0,0.0,0.0,0.0,0.0,0.0,0.0,0.0,0.0,0.0,0.0
2.0,2.127348,0.10846,-0.012945,-0.017527,0.018849,-0.012572,0.004236,-0.000568,-2.056113,-0.146627,0.012425,-0.014946,0.033073,-0.022346,0.007613,-0.001031,0.0,0.0,0.0,0.0,0.0,0.0,0.0,0.0,0.0,0.0,0.0,0.0,0.0,0.0,0.0,0.0
