duration,x^0,x^1,x^2,x^3,x^4,x^5,x^6,x^7,y^0,y^1,y^2,y^3,y^4,y^5,y^6,y^7,z^0,z^1,z^2,z^3,z^4,z^5,z^6,z^7,yaw^0,yaw^1,yaw^2,yaw^3,yaw^4,yaw^5,yaw^6,yaw^7
1.56,-0.0,0.0,0.075267,0.000534,0.002319,-0.002579,0.001348,-0.000269,0.0,0.0,0.014165,-0.006201,4.8e-05,-8.3e-05,5.6e-05,-1.3e-05,0.0,0.0,0.0,0.0,0.0,0.0,0.0,0.0,0.0,0.0,0.0,0.0,0.0,0.0,0.0,0.0
1.6,0.1885,0.245163,0.053927,0.222066,-0.537176,0.510064,-0.22345,0.037718,0.010959,-0.001014,0.01171,-0.208664,0.490715,-0.466484,0.204572,-0.034563,0.0,0.0,0.0,0.0,0.0,0.0,0.0,0.0,0.0,0.0,0.0,0.0,0.0,0.0,0.0,0.0
1.6,0.71998,0.407245,-0.009888,0.444241,-1.001169,1.074583,-0.522964,0.094568,0.013494,-0.000494,-0.01565,-0.014565,-0.059725,0.070851,-0.026055,0.00292,0.0,0.0,0.0,0.0,0.0,0.0,0.0,0.0,0.0,0.0,0.0,0.0,0.0,0.0,0.0,0.0
1.6,1.6371,0.800222,0.048257,0.048753,-0.170367,0.13705,-0.06127,0.01234,-0.094257,-0.115635,0.009995,0.050969,-0.129561,0.169622,-0.091292,0.016839,0.0,0.0,0.0,0.0,0.0,0.0,0.0,0.0,0.0,0.0,0.0,0.0,0.0,0.0,0.0,0.0
1.6,2.864546,0.62307,-0.162781,0.232038,-0.340872,0.291587,-0.125309,0.021362,-0.19501,-0.022778,0.051277,-0.181675,0.311291,-0.266243,0.114404,-0.019501,0.0,0.0,0.0,0.0,0.0,0.0,0.0,0.0,0.0,0.0,0.0,0.0,0.0,0.0,0.0,0.0
1.6,3.689829,0.479102,-0.019889,0.014591,-0.021331,0.019716,-0.008891,0.001566,-0.200108,0.029455,0.02608,-0.225686,0.390063,-0.329931,0.140724,-0.023862,0.0,0.0,0.0,0.0,0.0,0.0,0.0,0.0,0.0,0.0,0.0,0.0,0.0,0.0,0.0,0.0
1.6,4.425057,0.448621,-0.00659,0.033248,-0.067808,0.064038,-0.028221,0.004808,-0.193454,0.010479,0.004781,0.332272,-0.816707,0.771273,-0.334936,0.056013,0.0,0.0,0.0,0.0,0.0,0.0,0.0,0.0,0.0,0.0,0.0,0.0,0.0,0.0,0.0,0.0
1.6,5.14486,0.459451,0.002631,0.072575,-0.168107,0.194136,-0.102023,0.019545,-0.184154,-0.024382,-0.01579,0.075409,-0.066704,0.065824,-0.04332,0.010147,0.0,0.0,0.0,0.0,0.0,0.0,0.0,0.0,0.0,0.0,0.0,0.0,0.0,0.0,0.0,0.0
1.6,5.93093,0.509072,-0.052496,0.054023,-0.18131,0.187536,-0.095827,0.019113,-0.156038,0.034484,-0.100659,0.210902,-0.530796,0.552812,-0.276245,0.052411,0.0,0.0,0.0,0.0,0.0,0.0,0.0,0.0,0.0,0.0,0.0,0.0,0.0,0.0,0.0,0.0
1.6,6.51591,0.146305,-0.155469,0.098522,-0.083196,0.071099,-0.030537,0.005203,-0.404386,-0.474573,-0.220848,0.03114,0.075761,-0.064786,0.027834,-0.004744,0.0,0.0,0.0,0.0,0.0,0.0,0.0,0.0,0.0,0.0,0.0,0.0,0.0,0.0,0.0,0.0
1.6,6.58319,0.061963,0.130596,0.210639,-0.409291,0.344321,-0.146253,0.024716,-1.444712,-0.629745,0.258014,0.498702,-0.950489,0.800319,-0.340329,0.057584,0.0,0.0,0.0,0.0,0.0,0.0,0.0,0.0,0.0,0.0,0.0,0.0,0.0,0.0,0.0,0.0
1.6,7.01731,0.375681,-0.042061,0.105193,-0.332989,0.343497,-0.158983,0.028001,-1.7503,0.029018,0.007923,-0.540066,1.137625,-0.998621,0.413538,-0.066621,0.0,0.0,0.0,0.0,0.0,0.0,0.0,0.0,0.0,0.0,0.0,0.0,0.0,0.0,0.0,0.0
