duration,x^0,x^1,x^2,x^3,x^4,x^5,x^6,x^7,y^0,y^1,y^2,y^3,y^4,y^5,y^6,y^7,z^0,z^1,z^2,z^3,z^4,z^5,z^6,z^7,yaw^0,yaw^1,yaw^2,yaw^3,yaw^4,yaw^5,yaw^6,yaw^7
1.56,0.0,-0.0,0.123877,-0.028428,2.5e-05,1.5e-05,-2.4e-05,7e-06,0.0,-0.0,-0.118758,0.040846,-2.7e-05,2.7e-05,-1.1e-05,1e-06,0.0,0.0,0.0,0.0,0.0,0.0,0.0,0.0,0.0,0.0,0.0,0.0,0.0,0.0,0.0,0.0
1.6,0.193644,0.179149,0.013245,-0.187342,0.355967,-0.303863,0.12516,-0.020227,-0.133978,-0.072436,0.031929,0.330608,-0.64686,0.547893,-0.224499,0.036132,0.0,0.0,0.0,0.0,0.0,0.0,0.0,0.0,0.0,0.0,0.0,0.0,0.0,0.0,0.0,0.0
1.6,0.45034,0.156844,-0.056888,0.428378,-1.08193,1.186394,-0.573944,0.102481,-0.104696,0.043115,-0.122302,0.70588,-1.728077,1.850778,-0.883396,0.156511,0.0,0.0,0.0,0.0,0.0,0.0,0.0,0.0,0.0,0.0,0.0,0.0,0.0,0.0,0.0,0.0
1.6,0.781763,0.34015,0.06306,-0.197964,0.400206,-0.467161,0.239036,-0.043138,0.004568,0.208648,0.05463,-0.22489,0.449516,-0.53544,0.274963,-0.049182,0.0,0.0,0.0,0.0,0.0,0.0,0.0,0.0,0.0,0.0,0.0,0.0,0.0,0.0,0.0,0.0
1.6,1.253219,0.243318,-0.0947,0.38004,-0.652419,0.55802,-0.239787,0.040875,0.181458,-0.000902,-0.147437,0.523301,-0.86545,0.740287,-0.318127,0.054231,0.0,0.0,0.0,0.0,0.0,0.0,0.0,0.0,0.0,0.0,0.0,0.0,0.0,0.0,0.0,0.0
1.6,1.606586,0.169239,-0.074525,0.340185,-0.564182,0.478205,-0.204248,0.034666,0.155148,-0.021461,-0.057283,0.280416,-0.471927,0.401652,-0.172027,0.029256,0.0,0.0,0.0,0.0,0.0,0.0,0.0,0.0,0.0,0.0,0.0,0.0,0.0,0.0,0.0,0.0
1.6,1.90075,0.190663,-0.017176,-0.13226,0.388664,-0.381724,0.167287,-0.027965,0.140754,-0.009054,-0.023666,-0.09869,0.288126,-0.278464,0.120603,-0.019957,0.0,0.0,0.0,0.0,0.0,0.0,0.0,0.0,0.0,0.0,0.0,0.0,0.0,0.0,0.0,0.0
1.6,2.220497,0.220046,-0.022314,0.111002,-0.340232,0.370047,-0.172745,0.029704,0.117466,-0.002852,-0.022214,0.145937,-0.398417,0.435316,-0.207844,0.036617,0.0,0.0,0.0,0.0,0.0,0.0,0.0,0.0,0.0,0.0,0.0,0.0,0.0,0.0,0.0,0.0
1.6,2.519766,0.172753,-0.049024,0.313151,-0.798339,0.897572,-0.462052,0.087161,0.103222,0.007535,-0.086521,0.573049,-1.434786,1.593897,-0.815432,0.153401,0.0,0.0,0.0,0.0,0.0,0.0,0.0,0.0,0.0,0.0,0.0,0.0,0.0,0.0,0.0,0.0
1.6,2.720835,-0.081037,-0.096046,-0.277187,0.636154,-0.54407,0.233761,-0.039841,-0.011637,-0.434086,-0.18325,-0.452593,1.047756,-0.896398,0.385293,-0.065695,0.0,0.0,0.0,0.0,0.0,0.0,0.0,0.0,0.0,0.0,0.0,0.0,0.0,0.0,0.0,0.0
1.6,2.526435,0.105504,0.260236,-0.792963,1.266142,-1.068759,0.455221,-0.077111,-0.86129,-0.17785,0.445215,-1.208281,1.896025,-1.601221,0.682252,-0.1156,0.0,0.0,0.0,0.0,0.0,0.0,0.0,0.0,0.0,0.0,0.0,0.0,0.0,0.0,0.0,0.0
1.6,2.771901,0.155753,0.107865,-0.476586,0.949136,-0.876828,0.385115,-0.065759,-0.976256,-0.089635,0.240403,-1.679646,3.671842,-3.414289,1.489507,-0.251734,0.0,0.0,0.0,0.0,0.0,0.0,0.0,0.0,0.0,0.0,0.0,0.0,0.0,0.0,0.0,0.0
