0 -15 -8 2 9.48819e-08 9.66732e-08 0 -15 -8 2 9.48819e-08 9.66732e-08 0 
0.1 -14.9532 -7.95261 2 0.929753 0.938391 0 -14.9532 -7.95261 2 0.929753 0.938391 0 
0.2 -14.8153 -7.81421 2 1.82137 1.8201 0 -14.8153 -7.81421 2 1.82137 1.8201 0 
0.3 -14.5902 -7.59048 2 2.67486 2.64512 0 -14.5902 -7.59048 2 2.67486 2.64512 0 
0.4 -14.2816 -7.28708 2 3.49021 3.41347 0 -14.2816 -7.28708 2 3.49021 3.41347 0 
0.5 -13.8934 -6.90967 2 4.26744 4.12513 0 -13.8934 -6.90967 2 4.26744 4.12513 0 
0.6 -13.4294 -6.46394 2 5.00653 4.78011 0 -13.4312 -6.46839 2 4.97205 4.69606 0 
0.7 -12.8934 -5.95554 2 5.70748 5.3784 0 -12.9 -5.97136 2 5.64694 5.24011 0 
0.8 -12.2892 -5.39015 2 6.37031 5.92001 0 -12.3028 -5.42127 2 6.29211 5.75728 0 
0.9 -11.6206 -4.77343 2 6.995 6.40494 0 -11.6426 -4.8208 2 6.90755 6.24758 0 
1 -10.8914 -4.11105 2 7.58156 6.83319 0 -10.9223 -4.17265 2 7.49326 6.711 0 
1.1 -10.1051 -3.40891 2 8.13697 7.20078 0 -10.1446 -3.4797 2 8.05478 7.14393 0 
1.2 -9.26556 -2.67265 2 8.64733 7.51556 0 -9.31249 -2.74464 2 8.58128 7.55346 0 
1.3 -8.37718 -1.90756 2 9.11262 7.77752 0 -8.4295 -1.96979 2 9.07276 7.93958 0 
1.4 -7.44453 -1.11891 2 9.53285 7.98668 0 -7.49911 -1.1575 2 9.52922 8.3023 0 
1.5 -6.47211 -0.311985 2 9.90802 8.14303 0 -6.52482 -0.310111 2 9.95067 8.64161 0 
1.6 -5.46781 0.51029 2 10.1542 8.31374 0 -5.51317 0.572686 2 10.262 9.02818 0 
1.7 -4.44605 1.35302 2 10.2569 8.55203 0 -4.47651 1.49829 2 10.4508 9.49783 0 
1.8 -3.4212 2.22295 2 10.2161 8.85788 0 -3.4271 2.47502 2 10.5171 10.0506 0 
1.9 -2.40762 3.12684 2 10.0317 9.23129 0 -2.37718 3.51118 2 10.4609 10.6864 0 
2 -1.41964 4.07146 2 9.70382 9.67227 0 -1.33901 4.61507 2 10.2822 11.4053 0 
2.1 -0.47534 5.06344 2 9.18895 10.1449 0 -0.327739 5.79221 2 9.95907 12.1 0 
2.2 0.419494 6.09592 2 8.71446 10.4822 0 0.655967 7.02753 2 9.73087 12.5687 0 
2.3 1.2689 7.15536 2 8.28037 10.6841 0 1.6216 8.29843 2 9.59756 12.8115 0 
2.4 2.07691 8.22823 2 7.88666 10.7506 0 2.57864 9.5823 2 9.55913 12.8282 0 
2.5 2.84758 9.30098 2 7.53334 10.6819 0 3.53659 10.8565 2 9.61558 12.619 0 
2.6 3.58887 10.3587 2 7.30681 10.4477 0 4.50702 12.0971 2 9.81226 12.1526 0 
2.7 4.31181 11.3855 2 7.16634 10.063 0 5.50286 13.279 2 10.1237 11.4447 0 
2.8 5.025 12.3663 2 7.11192 9.5278 0 6.53558 14.378 2 10.5498 10.4952 0 
2.9 5.73706 13.286 2 7.14354 8.842 0 7.61665 15.37 2 11.0907 9.30416 0 
3 6.45658 14.1297 2 7.26122 8.00565 0 8.75754 16.2308 2 11.7462 7.87152 0 
3.1 7.19434 14.8783 2 7.4856 6.96245 0 9.97051 16.9339 2 12.4663 6.18403 0 
3.2 7.95201 15.5212 2 7.65935 5.88998 0 11.2414 17.4665 2 12.9039 4.46353 0 
3.3 8.72452 16.0554 2 7.78247 4.78824 0 12.5419 17.8255 2 13.0592 2.71002 0 
3.4 9.50682 16.4779 2 7.85496 3.65725 0 13.8438 18.0074 2 12.9321 0.923515 0 
3.5 10.2938 16.7858 2 7.87683 2.497 0 15.1189 18.0091 2 12.5226 -0.896001 0 
3.6 11.0773 16.9837 2 7.77802 1.47375 0 16.3355 17.8222 2 11.756 -2.88251 0 
3.7 11.8464 17.0832 2 7.58959 0.528339 0 17.4594 17.4243 2 10.6687 -5.11593 0 
3.8 12.5923 17.092 2 7.31156 -0.339246 0 18.4585 16.7908 2 9.26063 -7.59626 0 
3.9 13.3058 17.0179 2 6.94393 -1.129 0 19.3008 15.8969 2 7.53183 -10.3235 0 
4 13.978 16.8688 2 6.48668 -1.84093 0 19.9542 14.7179 2 5.4823 -13.2977 0 
4.1 14.5993 16.6501 2 5.92575 -2.50939 0 20.3771 13.2026 2 2.95866 -16.9225 0 
4.2 15.1608 16.3713 2 5.29328 -3.04474 0 20.5424 11.3502 2 0.328532 -20.0404 0 
4.3 15.6555 16.0456 2 4.58929 -3.44698 0 20.4393 9.21143 2 -2.40808 -22.6516 0 
4.4 16.0763 15.6864 2 3.81377 -3.7161 0 20.0572 6.83683 2 -5.25117 -24.7559 0 
4.5 16.4159 15.3069 2 2.96672 -3.8521 0 19.3855 4.27715 2 -8.20075 -26.3533 0 
4.6 16.6665 14.9244 2 2.07081 -3.74183 0 18.4046 1.62571 2 -11.0444 -26.2452 0 
4.7 16.8351 14.5695 2 1.32618 -3.30149 0 17.2514 -0.885845 2 -11.6462 -23.5558 0 
4.8 16.9368 14.2751 2 0.732832 -2.53107 0 16.1501 -2.9994 2 -10.006 -18.2851 0 
4.9 16.9867 14.0743 2 0.290773 -1.43057 0 15.3249 -4.45683 2 -6.12397 -10.4332 0 
5 17 14 2 7.45394e-09 -1.64984e-07 0 15 -5 2 -8.72795e-07 -1.22973e-06 0 
