duration,x^0,x^1,x^2,x^3,x^4,x^5,x^6,x^7,y^0,y^1,y^2,y^3,y^4,y^5,y^6,y^7,z^0,z^1,z^2,z^3,z^4,z^5,z^6,z^7,yaw^0,yaw^1,yaw^2,yaw^3,yaw^4,yaw^5,yaw^6,yaw^7
1.56,0.0,0.0,0.027893,-0.002743,0.00017,-0.000196,0.000106,-2.1e-05,-0.0,-0.0,-0.065622,0.006336,0.00148,-0.001435,0.000674,-0.000123,0.0,0.0,0.0,0.0,0.0,0.0,0.0,0.0,0.0,0.0,0.0,0.0,0.0,0.0,0.0,0.0
1.6,0.057694,0.067535,0.007239,0.05513,-0.135735,0.125855,-0.054514,0.009139,-0.13319,-0.153548,-0.036219,0.032266,-0.057294,0.050532,-0.021251,0.00349,0.0,0.0,0.0,0.0,0.0,0.0,0.0,0.0,0.0,0.0,0.0,0.0,0.0,0.0,0.0,0.0
1.6,0.170972,0.057797,-0.018995,0.018118,-0.028566,0.015369,-0.000802,-0.000749,-0.44789,-0.231648,-0.006705,-0.064434,0.17774,-0.1976,0.096668,-0.017402,0.0,0.0,0.0,0.0,0.0,0.0,0.0,0.0,0.0,0.0,0.0,0.0,0.0,0.0,0.0,0.0
1.6,0.22943,0.033325,0.023116,0.023872,-0.027695,0.033558,-0.015771,0.002192,-0.852064,-0.272697,0.013784,-0.035105,0.115425,-0.123965,0.063425,-0.012282,0.0,0.0,0.0,0.0,0.0,0.0,0.0,0.0,0.0,0.0,0.0,0.0,0.0,0.0,0.0,0.0
1.6,0.404338,0.201711,0.067042,-0.093475,0.127285,-0.108854,0.046768,-0.007971,-1.205894,-0.121205,0.074949,-0.009432,-0.013674,0.011715,-0.005044,0.000862,0.0,0.0,0.0,0.0,0.0,0.0,0.0,0.0,0.0,0.0,0.0,0.0,0.0,0.0,0.0,0.0
1.6,0.779259,0.223137,-0.015577,0.016087,-0.025879,0.021101,-0.008774,0.00146,-1.274856,-0.010071,-0.008647,0.010872,-0.021856,0.018509,-0.007901,0.00134,0.0,0.0,0.0,0.0,0.0,0.0,0.0,0.0,0.0,0.0,0.0,0.0,0.0,0.0,0.0,0.0
1.6,1.105957,0.183726,-0.010279,-0.034841,0.082207,-0.075892,0.032679,-0.005446,-1.3143,-0.045548,-0.012579,-0.042125,0.094307,-0.085804,0.036646,-0.006072,0.0,0.0,0.0,0.0,0.0,0.0,0.0,0.0,0.0,0.0,0.0,0.0,0.0,0.0,0.0,0.0
1.6,1.375933,0.159709,-0.005917,0.015452,-0.047151,0.054257,-0.026359,0.004665,-1.421772,-0.083352,-0.011362,0.0182,-0.054579,0.061919,-0.029805,0.005241,0.0,0.0,0.0,0.0,0.0,0.0,0.0,0.0,0.0,0.0,0.0,0.0,0.0,0.0,0.0,0.0
1.6,1.622506,0.154312,0.003637,-0.022464,0.051451,-0.057251,0.029037,-0.005356,-1.577447,-0.104858,0.035446,-0.262951,0.631741,-0.695734,0.351047,-0.064624,0.0,0.0,0.0,0.0,0.0,0.0,0.0,0.0,0.0,0.0,0.0,0.0,0.0,0.0,0.0,0.0
1.6,1.866956,0.158238,0.000729,0.026808,-0.050898,0.043665,-0.018812,0.003214,-1.731799,0.03823,0.084165,0.319506,-0.574555,0.491458,-0.211199,0.036004,0.0,0.0,0.0,0.0,0.0,0.0,0.0,0.0,0.0,0.0,0.0,0.0,0.0,0.0,0.0,0.0
1.6,2.12676,0.157263,-0.013057,0.018469,-0.033977,0.028876,-0.012302,0.002076,-1.335421,0.392787,0.005746,0.157199,-0.285403,0.243189,-0.10424,0.017737,0.0,0.0,0.0,0.0,0.0,0.0,0.0,0.0,0.0,0.0,0.0,0.0,0.0,0.0,0.0,0.0
1.6,2.35004,0.116684,-0.020093,0.00568,-0.01633,0.01592,-0.007215,0.001261,-0.641474,0.436066,-0.047825,0.050076,-0.118865,0.105836,-0.046214,0.007927,0.0,0.0,0.0,0.0,0.0,0.0,0.0,0.0,0.0,0.0,0.0,0.0,0.0,0.0,0.0,0.0
