duration,x^0,x^1,x^2,x^3,x^4,x^5,x^6,x^7,y^0,y^1,y^2,y^3,y^4,y^5,y^6,y^7,z^0,z^1,z^2,z^3,z^4,z^5,z^6,z^7,yaw^0,yaw^1,yaw^2,yaw^3,yaw^4,yaw^5,yaw^6,yaw^7
1.56,-0.0,-0.0,0.129214,-0.027567,-0.001579,0.001767,-0.00093,0.000187,0.0,-0.0,-0.018696,0.004851,-0.000164,0.000143,-6.2e-05,1.1e-05,0.0,0.0,0.0,0.0,0.0,0.0,0.0,0.0,0.0,0.0,0.0,0.0,0.0,0.0,0.0,0.0
1.6,0.20757,0.197546,0.012801,-0.140349,0.246331,-0.201425,0.080561,-0.01272,-0.027379,-0.023498,0.007447,-0.02914,0.093319,-0.101538,0.04753,-0.008371,0.0,0.0,0.0,0.0,0.0,0.0,0.0,0.0,0.0,0.0,0.0,0.0,0.0,0.0,0.0,0.0
1.6,0.49394,0.170838,-0.055024,0.386445,-0.960242,1.047798,-0.506005,0.090306,-0.045673,-0.014487,0.006326,-0.162602,0.362402,-0.39985,0.200202,-0.037001,0.0,0.0,0.0,0.0,0.0,0.0,0.0,0.0,0.0,0.0,0.0,0.0,0.0,0.0,0.0,0.0
1.6,0.838001,0.3348,0.056995,-0.160918,0.327525,-0.385986,0.198491,-0.03593,-0.170759,-0.157513,-0.002023,0.043042,-0.0678,0.098439,-0.052201,0.00865,0.0,0.0,0.0,0.0,0.0,0.0,0.0,0.0,0.0,0.0,0.0,0.0,0.0,0.0,0.0,0.0
1.6,1.325217,0.26785,-0.078991,0.318847,-0.552636,0.472724,-0.203154,0.034633,-0.307381,0.013047,0.093066,-0.227976,0.342334,-0.292783,0.125804,-0.021443,0.0,0.0,0.0,0.0,0.0,0.0,0.0,0.0,0.0,0.0,0.0,0.0,0.0,0.0,0.0,0.0
1.6,1.714004,0.185628,-0.068408,0.328047,-0.545377,0.461834,-0.197133,0.033444,-0.273568,-0.028484,-0.004629,0.106986,-0.183859,0.153059,-0.064572,0.010862,0.0,0.0,0.0,0.0,0.0,0.0,0.0,0.0,0.0,0.0,0.0,0.0,0.0,0.0,0.0,0.0
1.6,2.038464,0.209188,-0.013036,-0.174439,0.485363,-0.472422,0.206848,-0.034632,-0.284542,-0.005433,0.00134,-0.187649,0.450247,-0.423293,0.183611,-0.030705,0.0,0.0,0.0,0.0,0.0,0.0,0.0,0.0,0.0,0.0,0.0,0.0,0.0,0.0,0.0,0.0
1.6,2.393145,0.246196,-0.017907,0.092101,-0.312694,0.344449,-0.160487,0.027424,-0.289958,0.009887,-0.017892,0.131881,-0.399348,0.446596,-0.213811,0.037525,0.0,0.0,0.0,0.0,0.0,0.0,0.0,0.0,0.0,0.0,0.0,0.0,0.0,0.0,0.0,0.0
1.6,2.72462,0.183675,-0.046883,0.277507,-0.714886,0.807965,-0.417151,0.078836,-0.293876,0.011749,-0.019758,0.16296,-0.446904,0.503723,-0.26089,0.049732,0.0,0.0,0.0,0.0,0.0,0.0,0.0,0.0,0.0,0.0,0.0,0.0,0.0,0.0,0.0,0.0
1.6,2.93981,-0.058723,-0.088181,-0.247981,0.576833,-0.493173,0.21187,-0.036111,-0.347111,-0.189252,-0.087184,-0.113691,0.304507,-0.260458,0.111925,-0.019079,0.0,0.0,0.0,0.0,0.0,0.0,0.0,0.0,0.0,0.0,0.0,0.0,0.0,0.0,0.0,0.0
1.6,2.79865,0.133956,0.247177,-0.750026,1.19602,-1.009452,0.42991,-0.072815,-0.708638,-0.085968,0.170073,-0.419231,0.6545,-0.552319,0.235203,-0.039835,0.0,0.0,0.0,0.0,0.0,0.0,0.0,0.0,0.0,0.0,0.0,0.0,0.0,0.0,0.0,0.0
1.6,3.08508,0.178759,0.102538,-0.47889,0.964602,-0.893868,0.392726,-0.067018,-0.753379,-0.017039,0.057327,-0.325051,0.640814,-0.575144,0.247656,-0.041649,0.0,0.0,0.0,0.0,0.0,0.0,0.0,0.0,0.0,0.0,0.0,0.0,0.0,0.0,0.0,0.0
