duration,x^0,x^1,x^2,x^3,x^4,x^5,x^6,x^7,y^0,y^1,y^2,y^3,y^4,y^5,y^6,y^7,z^0,z^1,z^2,z^3,z^4,z^5,z^6,z^7,yaw^0,yaw^1,yaw^2,yaw^3,yaw^4,yaw^5,yaw^6,yaw^7
3.12,1e-06,1e-05,-0.000725,0.000146,3.2e-05,-2.4e-05,7e-06,-1e-06,-0.0,5e-06,-0.00915,0.000346,-3.8e-05,1.8e-05,-4e-06,0.0,0.0,0.0,0.0,0.0,0.0,0.0,0.0,0.0,0.0,0.0,0.0,0.0,0.0,0.0,0.0,0.0
3.2,-0.002294,7e-06,0.00065,0.000252,-0.000114,5.9e-05,-1.4e-05,1e-06,-0.079611,-0.048077,-0.006276,0.000295,8e-06,-5e-06,1e-06,-0.0,0.0,0.0,0.0,0.0,0.0,0.0,0.0,0.0,0.0,0.0,0.0,0.0,0.0,0.0,0.0,0.0
3.2,0.009577,0.008921,0.002117,0.00018,-3.3e-05,1.4e-05,-2e-06,0.0,-0.287899,-0.079041,-0.003425,0.000347,-5e-05,2.4e-05,-5e-06,0.0,0.0,0.0,0.0,0.0,0.0,0.0,0.0,0.0,0.0,0.0,0.0,0.0,0.0,0.0,0.0,0.0
3.2,0.06491,0.027284,0.003799,-0.000161,0.000312,-0.000153,3.6e-05,-3e-06,-0.565885,-0.091646,-0.000191,-0.000314,0.000596,-0.000291,6.9e-05,-6e-06,0.0,0.0,0.0,0.0,0.0,0.0,0.0,0.0,0.0,0.0,0.0,0.0,0.0,0.0,0.0,0.0
3.2,0.195011,0.055863,0.005333,-2.9e-05,4.9e-05,-1.4e-05,1e-06,0.0,-0.853879,-0.084956,0.002619,0.000172,1.7e-05,-9e-06,2e-06,-0.0,0.0,0.0,0.0,0.0,0.0,0.0,0.0,0.0,0.0,0.0,0.0,0.0,0.0,0.0,0.0,0.0
3.2,0.429379,0.091079,0.005491,-0.000609,0.000239,-9.6e-05,2e-05,-2e-06,-1.092819,-0.062407,0.004101,-0.000268,6.5e-05,-2.6e-05,6e-06,-0.0,0.0,0.0,0.0,0.0,0.0,0.0,0.0,0.0,0.0,0.0,0.0,0.0,0.0,0.0,0.0,0.0
3.2,0.765523,0.115969,0.002593,-0.000532,0.000239,-0.000101,2.1e-05,-2e-06,-1.257021,-0.042081,0.002241,-7e-06,-0.00019,8.7e-05,-1.9e-05,2e-06,0.0,0.0,0.0,0.0,0.0,0.0,0.0,0.0,0.0,0.0,0.0,0.0,0.0,0.0,0.0,0.0
3.2,1.153521,0.123864,0.000203,-0.000687,0.000405,-0.000187,4e-05,-3e-06,-1.374446,-0.033039,-0.000591,0.002212,-0.002393,0.001177,-0.000273,2.4e-05,0.0,0.0,0.0,0.0,0.0,0.0,0.0,0.0,0.0,0.0,0.0,0.0,0.0,0.0,0.0,0.0
3.2,1.540932,0.115214,-0.003508,0.000977,-0.001253,0.000619,-0.000149,1.4e-05,-1.479839,-0.033427,-0.002874,0.003461,-0.003658,0.001789,-0.000425,3.9e-05,0.0,0.0,0.0,0.0,0.0,0.0,0.0,0.0,0.0,0.0,0.0,0.0,0.0,0.0,0.0,0.0
3.2,1.869236,0.086402,-0.005947,6.1e-05,-2e-06,2e-06,-1e-06,0.0,-1.610206,-0.053111,-0.005252,0.000364,3.4e-05,-1.7e-05,4e-06,-0.0,0.0,0.0,0.0,0.0,0.0,0.0,0.0,0.0,0.0,0.0,0.0,0.0,0.0,0.0,0.0,0.0
3.2,2.086829,0.050165,-0.004898,0.00025,-8.7e-05,3.5e-05,-7e-06,1e-06,-1.821024,-0.074614,-0.001065,0.000484,-3.1e-05,1.5e-05,-4e-06,0.0,0.0,0.0,0.0,0.0,0.0,0.0,0.0,0.0,0.0,0.0,0.0,0.0,0.0,0.0,0.0,0.0
3.2,2.202331,0.023405,-0.003504,7.1e-05,4.4e-05,-1.1e-05,1e-06,-0.0,-2.05576,-0.067512,0.003411,0.000129,0.00029,-0.000114,2.2e-05,-2e-06,0.0,0.0,0.0,0.0,0.0,0.0,0.0,0.0,0.0,0.0,0.0,0.0,0.0,0.0,0.0,0.0
