0 -1.5 -1 2 1.34075e-09 5.29375e-09 0 -1.5 0.5 2 2.96471e-09 -3.44208e-09 0 
0.02 -1.49997 -0.999895 2 0.0026748 0.0105194 0 -1.49994 0.499931 2 0.00590683 -0.00683775 0 
0.04 -1.49989 -0.99958 2 0.0053362 0.0209024 0 -1.49976 0.499727 2 0.0117684 -0.0135826 0 
0.06 -1.49976 -0.999059 2 0.0079842 0.0311492 0 -1.49947 0.499389 2 0.0175849 -0.0202347 0 
0.08 -1.49957 -0.998335 2 0.0106188 0.0412597 0 -1.49906 0.498918 2 0.0233561 -0.0267939 0 
0.1 -1.49934 -0.99741 2 0.01324 0.0512338 0 -1.49854 0.498318 2 0.0290821 -0.0332602 0 
0.12 -1.49904 -0.996287 2 0.0158478 0.0610717 0 -1.4979 0.497589 2 0.0347629 -0.0396337 0 
0.14 -1.4987 -0.994968 2 0.0184423 0.0707733 0 -1.49715 0.496733 2 0.0403985 -0.0459144 0 
0.16 -1.49831 -0.993457 2 0.0210233 0.0803385 0 -1.49628 0.495753 2 0.0459889 -0.0521022 0 
0.18 -1.49786 -0.991755 2 0.0235909 0.0897675 0 -1.49531 0.494649 2 0.0515342 -0.0581972 0 
0.2 -1.49736 -0.989867 2 0.0261451 0.0990602 0 -1.49422 0.493425 2 0.0570342 -0.0641993 0 
0.22 -1.49681 -0.987794 2 0.028686 0.108217 0 -1.49303 0.492082 2 0.062489 -0.0701085 0 
0.24 -1.49622 -0.985539 2 0.0312134 0.117237 0 -1.49172 0.490622 2 0.0678986 -0.0759249 0 
0.26 -1.49557 -0.983105 2 0.0337274 0.12612 0 -1.49031 0.489046 2 0.073263 -0.0816485 0 
0.28 -1.49487 -0.980495 2 0.0362281 0.134868 0 -1.48879 0.487356 2 0.0785822 -0.0872792 0 
0.3 -1.49412 -0.977711 2 0.0387153 0.143479 0 -1.48717 0.485555 2 0.0838562 -0.0928171 0 
0.32 -1.49332 -0.974757 2 0.0411891 0.151954 0 -1.48544 0.483644 2 0.089085 -0.0982621 0 
0.34 -1.49247 -0.971634 2 0.0436496 0.160293 0 -1.4836 0.481625 2 0.0942686 -0.103614 0 
0.36 -1.49157 -0.968346 2 0.0460966 0.168495 0 -1.48167 0.4795 2 0.099407 -0.108874 0 
0.38 -1.49063 -0.964895 2 0.0485303 0.176561 0 -1.47963 0.477271 2 0.1045 -0.11404 0 
0.4 -1.48963 -0.961285 2 0.0509506 0.184491 0 -1.47749 0.474939 2 0.109548 -0.119114 0 
0.42 -1.48859 -0.957517 2 0.0533574 0.192284 0 -1.47525 0.472507 2 0.114551 -0.124094 0 
0.44 -1.4875 -0.953594 2 0.0557509 0.199941 0 -1.47291 0.469976 2 0.119509 -0.128982 0 
0.46 -1.48636 -0.94952 2 0.058131 0.207462 0 -1.47047 0.467348 2 0.124421 -0.133777 0 
0.48 -1.48517 -0.945297 2 0.0604976 0.214847 0 -1.46793 0.464626 2 0.129288 -0.13848 0 
0.5 -1.48394 -0.940927 2 0.0628509 0.222095 0 -1.4653 0.46181 2 0.13411 -0.143089 0 
0.52 -1.48266 -0.936414 2 0.0651908 0.229207 0 -1.46257 0.458903 2 0.138887 -0.147605 0 
0.54 -1.48133 -0.93176 2 0.0675173 0.236182 0 -1.45974 0.455906 2 0.143619 -0.152029 0 
0.56 -1.47996 -0.926967 2 0.0698303 0.243022 0 -1.45682 0.452822 2 0.148305 -0.15636 0 
0.58 -1.47854 -0.92204 2 0.07213 0.249725 0 -1.45381 0.449652 2 0.152946 -0.160598 0 
0.6 -1.47707 -0.916979 2 0.0744163 0.256292 0 -1.4507 0.446399 2 0.157542 -0.164743 0 
0.62 -1.47556 -0.911789 2 0.0766892 0.262722 0 -1.44751 0.443063 2 0.162093 -0.168795 0 
0.64 -1.474 -0.906471 2 0.0789487 0.269016 0 -1.44422 0.439648 2 0.166598 -0.172755 0 
0.66 -1.4724 -0.901029 2 0.0811948 0.275174 0 -1.44084 0.436154 2 0.171059 -0.176621 0 
0.68 -1.47076 -0.895465 2 0.0834275 0.281196 0 -1.43738 0.432583 2 0.175474 -0.180395 0 
0.7 -1.46907 -0.889782 2 0.0856468 0.287081 0 -1.43382 0.428939 2 0.179844 -0.184076 0 
0.72 -1.46733 -0.883983 2 0.0878527 0.29283 0 -1.43018 0.425221 2 0.184169 -0.187664 0 
0.74 -1.46555 -0.87807 2 0.0900452 0.298443 0 -1.42646 0.421433 2 0.188448 -0.191159 0 
0.76 -1.46373 -0.872046 2 0.0922243 0.303919 0 -1.42265 0.417575 2 0.192683 -0.194562 0 
0.78 -1.46186 -0.865914 2 0.0943901 0.309259 0 -1.41875 0.413651 2 0.196872 -0.197871 0 
0.8 -1.45995 -0.859677 2 0.0965424 0.314463 0 -1.41477 0.409661 2 0.201016 -0.201088 0 
0.82 -1.458 -0.853336 2 0.0986813 0.31953 0 -1.41071 0.405608 2 0.205115 -0.204211 0 
0.84 -1.45601 -0.846896 2 0.100807 0.324461 0 -1.40657 0.401493 2 0.209168 -0.207242 0 
0.86 -1.45397 -0.840359 2 0.102919 0.329256 0 -1.40234 0.397319 2 0.213176 -0.210181 0 
0.88 -1.45189 -0.833727 2 0.105018 0.333915 0 -1.39804 0.393087 2 0.21714 -0.213026 0 
0.9 -1.44977 -0.827003 2 0.107103 0.338437 0 -1.39366 0.388798 2 0.221058 -0.215778 0 
0.92 -1.44761 -0.82019 2 0.109175 0.342823 0 -1.3892 0.384456 2 0.22493 -0.218438 0 
0.94 -1.4454 -0.813291 2 0.111234 0.347073 0 -1.38466 0.380062 2 0.228758 -0.221004 0 
0.96 -1.44316 -0.806308 2 0.113279 0.351186 0 -1.38005 0.375617 2 0.23254 -0.223478 0 
0.98 -1.44087 -0.799245 2 0.11531 0.355163 0 -1.37536 0.371123 2 0.236277 -0.225859 0 
1 -1.43854 -0.792103 2 0.117329 0.359004 0 -1.3706 0.366583 2 0.239969 -0.228147 0 
1.02 -1.43619 -0.784897 2 0.117996 0.361492 0 -1.36576 0.362007 2 0.243562 -0.229463 0 
1.04 -1.43382 -0.777644 2 0.118734 0.363832 0 -1.36086 0.357405 2 0.247134 -0.230706 0 
1.06 -1.43144 -0.770345 2 0.119542 0.366025 0 -1.35588 0.352779 2 0.250686 -0.231876 0 
1.08 -1.42904 -0.763004 2 0.120421 0.36807 0 -1.35083 0.34813 2 0.254217 -0.232973 0 
1.1 -1.42662 -0.755623 2 0.121371 0.369968 0 -1.34571 0.34346 2 0.257727 -0.233998 0 
1.12 -1.42419 -0.748206 2 0.122391 0.371719 0 -1.34052 0.338771 2 0.261217 -0.234951 0 
1.14 -1.42173 -0.740756 2 0.123482 0.373322 0 -1.33526 0.334063 2 0.264687 -0.23583 0 
1.16 -1.41925 -0.733274 2 0.124643 0.374778 0 -1.32993 0.329338 2 0.268135 -0.236637 0 
1.18 -1.41674 -0.725765 2 0.125875 0.376087 0 -1.32454 0.324598 2 0.271564 -0.237372 0 
1.2 -1.41421 -0.718232 2 0.127177 0.377249 0 -1.31907 0.319844 2 0.274971 -0.238033 0 
1.22 -1.41165 -0.710676 2 0.12855 0.378263 0 -1.31354 0.315077 2 0.278358 -0.238623 0 
1.24 -1.40907 -0.703102 2 0.129994 0.379129 0 -1.30794 0.310299 2 0.281725 -0.239139 0 
1.26 -1.40645 -0.695512 2 0.131508 0.379849 0 -1.30227 0.305512 2 0.285071 -0.239583 0 
1.28 -1.40381 -0.687909 2 0.133093 0.380421 0 -1.29653 0.300716 2 0.288396 -0.239954 0 
1.3 -1.40113 -0.680296 2 0.134748 0.380846 0 -1.29073 0.295914 2 0.291701 -0.240253 0 
1.32 -1.39842 -0.672677 2 0.136474 0.381123 0 -1.28487 0.291107 2 0.294985 -0.240479 0 
1.34 -1.39567 -0.665052 2 0.13827 0.381253 0 -1.27893 0.286296 2 0.298249 -0.240632 0 
1.36 -1.39289 -0.657427 2 0.140137 0.381236 0 -1.27294 0.281482 2 0.301492 -0.240713 0 
1.38 -1.39006 -0.649804 2 0.142075 0.381071 0 -1.26687 0.276667 2 0.304715 -0.240721 0 
1.4 -1.3872 -0.642185 2 0.144083 0.380759 0 -1.26075 0.271854 2 0.307917 -0.240657 0 
1.42 -1.3843 -0.634575 2 0.146161 0.3803 0 -1.25456 0.267042 2 0.311098 -0.24052 0 
1.44 -1.38136 -0.626974 2 0.148311 0.379693 0 -1.2483 0.262233 2 0.314259 -0.24031 0 
1.46 -1.37837 -0.619388 2 0.150531 0.378939 0 -1.24199 0.25743 2 0.317399 -0.240028 0 
1.48 -1.37533 -0.611818 2 0.152821 0.378038 0 -1.23561 0.252633 2 0.320519 -0.239673 0 
1.5 -1.37225 -0.604267 2 0.155182 0.376989 0 -1.22917 0.247843 2 0.323618 -0.239245 0 
1.52 -1.36913 -0.596739 2 0.157613 0.375793 0 -1.22266 0.243063 2 0.326697 -0.238745 0 
1.54 -1.36595 -0.589237 2 0.160116 0.37445 0 -1.2161 0.238294 2 0.329755 -0.238172 0 
1.56 -1.36272 -0.581762 2 0.162688 0.372959 0 -1.20947 0.233537 2 0.332793 -0.237527 0 
1.58 -1.35944 -0.574319 2 0.165331 0.371321 0 -1.20279 0.228793 2 0.33581 -0.236809 0 
1.6 -1.35611 -0.56691 2 0.168045 0.369536 0 -1.19604 0.224065 2 0.338806 -0.236018 0 
1.62 -1.35272 -0.559539 2 0.17083 0.367603 0 -1.18923 0.219353 2 0.341782 -0.235155 0 
1.64 -1.34927 -0.552207 2 0.173685 0.365523 0 -1.18237 0.214659 2 0.344737 -0.234219 0 
1.66 -1.34577 -0.544919 2 0.17661 0.363296 0 -1.17545 0.209985 2 0.347672 -0.23321 0 
1.68 -1.34221 -0.537676 2 0.179606 0.360921 0 -1.16846 0.205331 2 0.350586 -0.232129 0 
1.7 -1.33859 -0.530483 2 0.182673 0.358399 0 -1.16142 0.2007 2 0.35348 -0.230975 0 
1.72 -1.3349 -0.523341 2 0.18581 0.35573 0 -1.15432 0.196093 2 0.356353 -0.229749 0 
1.74 -1.33115 -0.516255 2 0.189018 0.352913 0 -1.14717 0.191511 2 0.359205 -0.228449 0 
1.76 -1.32734 -0.509226 2 0.192296 0.349949 0 -1.13996 0.186955 2 0.362037 -0.227078 0 
1.78 -1.32346 -0.502258 2 0.195645 0.346838 0 -1.13269 0.182428 2 0.364848 -0.225633 0 
1.8 -1.31951 -0.495353 2 0.199065 0.343579 0 -1.12536 0.177931 2 0.367639 -0.224116 0 
1.82 -1.3155 -0.488516 2 0.202555 0.340173 0 -1.11798 0.173464 2 0.370409 -0.222527 0 
1.84 -1.31141 -0.481747 2 0.206115 0.336619 0 -1.11055 0.16903 2 0.373159 -0.220865 0 
1.86 -1.30725 -0.475052 2 0.209747 0.332919 0 -1.10305 0.16463 2 0.375888 -0.21913 0 
1.88 -1.30302 -0.468432 2 0.213448 0.329071 0 -1.09551 0.160265 2 0.378597 -0.217322 0 
1.9 -1.29872 -0.46189 2 0.217221 0.325075 0 -1.08791 0.155938 2 0.381285 -0.215442 0 
1.92 -1.29433 -0.45543 2 0.221064 0.320932 0 -1.08026 0.151648 2 0.383952 -0.21349 0 
1.94 -1.28987 -0.449054 2 0.224977 0.316642 0 -1.07255 0.147398 2 0.386599 -0.211464 0 
1.96 -1.28533 -0.442765 2 0.228961 0.312205 0 -1.06479 0.14319 2 0.389225 -0.209366 0 
1.98 -1.28071 -0.436566 2 0.233016 0.30762 0 -1.05698 0.139024 2 0.391831 -0.207196 0 
2 -1.27601 -0.430461 2 0.237141 0.302888 0 -1.04912 0.134903 2 0.394416 -0.204953 0 
2.02 -1.27122 -0.42443 2 0.241926 0.300171 0 -1.04121 0.13081 2 0.397064 -0.204346 0 
2.04 -1.26634 -0.418455 2 0.246648 0.29741 0 -1.03324 0.126729 2 0.399679 -0.203726 0 
2.06 -1.26136 -0.412534 2 0.251309 0.294606 0 -1.02522 0.122661 2 0.402259 -0.203094 0 
2.08 -1.25628 -0.406671 2 0.255908 0.291757 0 -1.01715 0.118605 2 0.404806 -0.202449 0 
2.1 -1.25112 -0.400864 2 0.260444 0.288864 0 -1.00903 0.114563 2 0.407319 -0.20179 0 
2.12 -1.24587 -0.395116 2 0.264919 0.285928 0 -1.00086 0.110534 2 0.409797 -0.201119 0 
2.14 -1.24052 -0.389428 2 0.269332 0.282948 0 -0.992636 0.106518 2 0.412242 -0.200435 0 
2.16 -1.23509 -0.383799 2 0.273683 0.279924 0 -0.984367 0.102516 2 0.414653 -0.199737 0 
2.18 -1.22958 -0.378231 2 0.277972 0.276856 0 -0.97605 0.0985287 2 0.417029 -0.199027 0 
2.2 -1.22397 -0.372725 2 0.282199 0.273744 0 -0.967686 0.0945554 2 0.419372 -0.198304 0 
2.22 -1.21829 -0.367281 2 0.286364 0.270588 0 -0.959276 0.0905966 2 0.421681 -0.197568 0 
2.24 -1.21252 -0.361902 2 0.290468 0.267388 0 -0.950819 0.0866528 2 0.423956 -0.196819 0 
2.26 -1.20667 -0.356586 2 0.294509 0.264144 0 -0.942318 0.082724 2 0.426197 -0.196057 0 
2.28 -1.20074 -0.351336 2 0.298488 0.260857 0 -0.933772 0.0788106 2 0.428404 -0.195282 0 
2.3 -1.19473 -0.346152 2 0.302406 0.257525 0 -0.925182 0.0749128 2 0.430577 -0.194494 0 
2.32 -1.18864 -0.341035 2 0.306262 0.25415 0 -0.916549 0.0710309 2 0.432716 -0.193693 0 
2.34 -1.18248 -0.335986 2 0.310055 0.250731 0 -0.907874 0.0671652 2 0.434821 -0.192879 0 
2.36 -1.17624 -0.331006 2 0.313787 0.247268 0 -0.899156 0.0633158 2 0.436892 -0.192052 0 
2.38 -1.16993 -0.326096 2 0.317457 0.243761 0 -0.890398 0.0594832 2 0.438929 -0.191212 0 
2.4 -1.16354 -0.321256 2 0.321064 0.24021 0 -0.881599 0.0556674 2 0.440932 -0.19036 0 
2.42 -1.15709 -0.316488 2 0.32461 0.236615 0 -0.872761 0.0518689 2 0.442901 -0.189494 0 
2.44 -1.15056 -0.311792 2 0.328094 0.232976 0 -0.863884 0.0480878 2 0.444837 -0.188615 0 
2.46 -1.14396 -0.307169 2 0.331516 0.229294 0 -0.854968 0.0443244 2 0.446738 -0.187724 0 
2.48 -1.1373 -0.302621 2 0.334877 0.225567 0 -0.846014 0.0405789 2 0.448605 -0.186819 0 
2.5 -1.13057 -0.298147 2 0.338175 0.221797 0 -0.837024 0.0368517 2 0.450439 -0.185901 0 
2.52 -1.12377 -0.293749 2 0.341411 0.217983 0 -0.827997 0.0331429 2 0.452238 -0.184971 0 
2.54 -1.11691 -0.289428 2 0.344585 0.214125 0 -0.818934 0.0294529 2 0.454003 -0.184027 0 
2.56 -1.10999 -0.285184 2 0.347698 0.210223 0 -0.809837 0.0257819 2 0.455735 -0.183071 0 
2.58 -1.10301 -0.281019 2 0.350748 0.206277 0 -0.800705 0.0221302 2 0.457433 -0.182102 0 
2.6 -1.09596 -0.276933 2 0.353737 0.202287 0 -0.79154 0.018498 2 0.459096 -0.181119 0 
2.62 -1.08886 -0.272928 2 0.356664 0.198253 0 -0.782342 0.0148855 2 0.460726 -0.180124 0 
2.64 -1.0817 -0.269004 2 0.359528 0.194176 0 -0.773111 0.0112931 2 0.462321 -0.179116 0 
2.66 -1.07448 -0.265161 2 0.362331 0.190054 0 -0.763849 0.00772095 2 0.463883 -0.178094 0 
2.68 -1.0672 -0.261402 2 0.365072 0.185889 0 -0.754556 0.00416939 2 0.465411 -0.17706 0 
2.7 -1.05987 -0.257726 2 0.367751 0.18168 0 -0.745233 0.000638629 2 0.466905 -0.176013 0 
2.72 -1.05249 -0.254135 2 0.370368 0.177426 0 -0.73588 -0.00287106 2 0.468364 -0.174953 0 
2.74 -1.04506 -0.250629 2 0.372923 0.173129 0 -0.726499 -0.00635941 2 0.46979 -0.17388 0 
2.76 -1.03758 -0.24721 2 0.375416 0.168788 0 -0.717089 -0.00982617 2 0.471182 -0.172794 0 
2.78 -1.03004 -0.243878 2 0.377847 0.164404 0 -0.707651 -0.0132711 2 0.47254 -0.171695 0 
2.8 -1.02246 -0.240634 2 0.380217 0.159975 0 -0.698187 -0.0166939 2 0.473864 -0.170583 0 
2.82 -1.01484 -0.237479 2 0.382524 0.155502 0 -0.688697 -0.0200943 2 0.475154 -0.169458 0 
2.84 -1.00716 -0.234414 2 0.38477 0.150986 0 -0.679181 -0.0234721 2 0.47641 -0.16832 0 
2.86 -0.999445 -0.23144 2 0.386953 0.146425 0 -0.669641 -0.026827 2 0.477632 -0.16717 0 
2.88 -0.991685 -0.228558 2 0.389075 0.141821 0 -0.660076 -0.0301588 2 0.47882 -0.166006 0 
2.9 -0.983882 -0.225768 2 0.391134 0.137173 0 -0.650488 -0.0334672 2 0.479975 -0.164829 0 
2.92 -0.97604 -0.223071 2 0.393132 0.132481 0 -0.640878 -0.0367519 2 0.481095 -0.163639 0 
2.94 -0.968158 -0.220469 2 0.395068 0.127745 0 -0.631245 -0.0400127 2 0.482181 -0.162437 0 
2.96 -0.960237 -0.217962 2 0.396942 0.122965 0 -0.621591 -0.0432493 2 0.483233 -0.161221 0 
2.98 -0.95228 -0.21555 2 0.398754 0.118141 0 -0.611916 -0.0464614 2 0.484252 -0.159993 0 
3 -0.944288 -0.213236 2 0.400504 0.113273 0 -0.602221 -0.0496489 2 0.485236 -0.158751 0 
3.02 -0.936244 -0.211003 2 0.403813 0.110032 0 -0.592504 -0.0528059 2 0.486414 -0.156942 0 
3.04 -0.928135 -0.208834 2 0.40708 0.106886 0 -0.582764 -0.0559265 2 0.487564 -0.155119 0 
3.06 -0.919962 -0.206727 2 0.410302 0.103836 0 -0.573002 -0.0590105 2 0.488687 -0.153283 0 
3.08 -0.911724 -0.20468 2 0.413482 0.100882 0 -0.563217 -0.0620577 2 0.489783 -0.151434 0 
3.1 -0.903423 -0.202691 2 0.416618 0.0980235 0 -0.553411 -0.0650678 2 0.490851 -0.149571 0 
3.12 -0.895059 -0.200759 2 0.419711 0.095261 0 -0.543583 -0.0680405 2 0.491893 -0.147695 0 
3.14 -0.886634 -0.19888 2 0.42276 0.0925944 0 -0.533735 -0.0709755 2 0.492907 -0.145806 0 
3.16 -0.878149 -0.197054 2 0.425766 0.0900236 0 -0.523867 -0.0738726 2 0.493894 -0.143904 0 
3.18 -0.869604 -0.195279 2 0.428728 0.0875486 0 -0.51398 -0.0767316 2 0.494854 -0.141988 0 
3.2 -0.861 -0.193552 2 0.431647 0.0851695 0 -0.504073 -0.0795521 2 0.495787 -0.14006 0 
3.22 -0.852338 -0.191871 2 0.434523 0.0828863 0 -0.494148 -0.0823339 2 0.496692 -0.138117 0 
3.24 -0.84362 -0.190236 2 0.437355 0.0806989 0 -0.484206 -0.0850767 2 0.497571 -0.136162 0 
3.26 -0.834845 -0.188643 2 0.440144 0.0786073 0 -0.474246 -0.0877803 2 0.498422 -0.134193 0 
3.28 -0.826014 -0.187091 2 0.442889 0.0766116 0 -0.464269 -0.0904443 2 0.499246 -0.132211 0 
3.3 -0.817129 -0.185578 2 0.445591 0.0747117 0 -0.454276 -0.0930686 2 0.500043 -0.130216 0 
3.32 -0.808191 -0.184101 2 0.44825 0.0729076 0 -0.444267 -0.0956529 2 0.500812 -0.128207 0 
3.34 -0.7992 -0.182661 2 0.450865 0.0711994 0 -0.434244 -0.0981968 2 0.501554 -0.126185 0 
3.36 -0.790156 -0.181253 2 0.453437 0.0695871 0 -0.424205 -0.1007 2 0.50227 -0.12415 0 
3.38 -0.781062 -0.179876 2 0.455966 0.0680706 0 -0.414153 -0.103163 2 0.502958 -0.122102 0 
3.4 -0.771918 -0.178529 2 0.458451 0.0666499 0 -0.404087 -0.105584 2 0.503618 -0.12004 0 
3.42 -0.762725 -0.17721 2 0.460892 0.0653251 0 -0.394009 -0.107964 2 0.504252 -0.117965 0 
3.44 -0.753483 -0.175916 2 0.463291 0.0640961 0 -0.383917 -0.110303 2 0.504858 -0.115877 0 
3.46 -0.744193 -0.174645 2 0.465646 0.0629629 0 -0.373814 -0.112599 2 0.505438 -0.113776 0 
3.48 -0.734857 -0.173397 2 0.467957 0.0619256 0 -0.3637 -0.114854 2 0.50599 -0.111661 0 
3.5 -0.725475 -0.172168 2 0.470225 0.0609842 0 -0.353575 -0.117066 2 0.506514 -0.109533 0 
3.52 -0.716048 -0.170957 2 0.47245 0.0601386 0 -0.34344 -0.119235 2 0.507012 -0.107392 0 
3.54 -0.706578 -0.169761 2 0.474631 0.0593888 0 -0.333295 -0.121361 2 0.507482 -0.105237 0 
3.56 -0.697064 -0.16858 2 0.476769 0.0587349 0 -0.323141 -0.123444 2 0.507926 -0.103069 0 
3.58 -0.687507 -0.167411 2 0.478863 0.0581768 0 -0.312978 -0.125484 2 0.508342 -0.100888 0 
3.6 -0.677909 -0.166253 2 0.480914 0.0577145 0 -0.302807 -0.12748 2 0.508731 -0.0986935 0 
3.62 -0.668271 -0.165102 2 0.482922 0.0573481 0 -0.292629 -0.129432 2 0.509092 -0.0964858 0 
3.64 -0.658593 -0.163958 2 0.484886 0.0570776 0 -0.282444 -0.131339 2 0.509427 -0.0942648 0 
3.66 -0.648876 -0.162818 2 0.486807 0.0569029 0 -0.272252 -0.133202 2 0.509734 -0.0920306 0 
3.68 -0.639121 -0.161681 2 0.488685 0.056824 0 -0.262054 -0.13502 2 0.510014 -0.089783 0 
3.7 -0.629329 -0.160545 2 0.490519 0.056841 0 -0.251852 -0.136793 2 0.510267 -0.0875222 0 
3.72 -0.6195 -0.159407 2 0.492309 0.0569538 0 -0.241644 -0.138521 2 0.510493 -0.0852482 0 
3.74 -0.609637 -0.158266 2 0.494056 0.0571624 0 -0.231432 -0.140203 2 0.510691 -0.0829608 0 
3.76 -0.599738 -0.15712 2 0.49576 0.0574669 0 -0.221216 -0.141839 2 0.510862 -0.0806602 0 
3.78 -0.589806 -0.155967 2 0.497421 0.0578673 0 -0.210998 -0.143429 2 0.511007 -0.0783463 0 
3.8 -0.579842 -0.154805 2 0.499038 0.0583635 0 -0.200776 -0.144973 2 0.511123 -0.0760191 0 
3.82 -0.569845 -0.153632 2 0.500611 0.0589555 0 -0.190553 -0.14647 2 0.511213 -0.0736786 0 
3.84 -0.559818 -0.152446 2 0.502142 0.0596434 0 -0.180328 -0.14792 2 0.511276 -0.0713249 0 
3.86 -0.54976 -0.151245 2 0.503629 0.0604271 0 -0.170102 -0.149323 2 0.511311 -0.0689579 0 
3.88 -0.539673 -0.150028 2 0.505072 0.0613067 0 -0.159876 -0.150678 2 0.511319 -0.0665776 0 
3.9 -0.529557 -0.148792 2 0.506472 0.0622821 0 -0.149649 -0.151986 2 0.5113 -0.064184 0 
3.92 -0.519414 -0.147536 2 0.507829 0.0633533 0 -0.139424 -0.153246 2 0.511254 -0.0617772 0 
3.94 -0.509244 -0.146258 2 0.509142 0.0645204 0 -0.129199 -0.154457 2 0.511181 -0.059357 0 
3.96 -0.499049 -0.144955 2 0.510412 0.0657833 0 -0.118977 -0.15562 2 0.51108 -0.0569236 0 
3.98 -0.488828 -0.143626 2 0.511638 0.0671421 0 -0.108756 -0.156734 2 0.510952 -0.054477 0 
4 -0.478583 -0.142268 2 0.512821 0.0685967 0 -0.0985389 -0.157799 2 0.510797 -0.052017 0 
4.02 -0.468313 -0.140892 2 0.514269 0.0690371 0 -0.088325 -0.158817 2 0.510592 -0.0498242 0 
4.04 -0.458013 -0.139507 2 0.515685 0.0694969 0 -0.0781154 -0.159792 2 0.510365 -0.0476679 0 
4.06 -0.447685 -0.138112 2 0.517071 0.0699761 0 -0.0679106 -0.160724 2 0.510117 -0.045548 0 
4.08 -0.43733 -0.136708 2 0.518425 0.0704746 0 -0.0577109 -0.161614 2 0.509847 -0.0434647 0 
4.1 -0.426949 -0.135293 2 0.519748 0.0709925 0 -0.0475168 -0.162463 2 0.509556 -0.0414179 0 
4.12 -0.416541 -0.133868 2 0.521039 0.0715297 0 -0.0373288 -0.163271 2 0.509244 -0.0394077 0 
4.14 -0.406107 -0.132432 2 0.5223 0.0720864 0 -0.0271472 -0.16404 2 0.50891 -0.0374339 0 
4.16 -0.395649 -0.130984 2 0.523529 0.0726624 0 -0.0169725 -0.164769 2 0.508555 -0.0354966 0 
4.18 -0.385166 -0.129525 2 0.524728 0.0732577 0 -0.00680514 -0.16546 2 0.508179 -0.0335959 0 
4.2 -0.37466 -0.128054 2 0.525895 0.0738725 0 0.0033545 -0.166113 2 0.507781 -0.0317317 0 
4.22 -0.364131 -0.12657 2 0.52703 0.0745066 0 0.013506 -0.166729 2 0.507362 -0.029904 0 
4.24 -0.353579 -0.125073 2 0.528135 0.07516 0 0.0236488 -0.167309 2 0.506921 -0.0281127 0 
4.26 -0.343005 -0.123563 2 0.529208 0.0758329 0 0.0337827 -0.167854 2 0.50646 -0.0263581 0 
4.28 -0.332411 -0.12204 2 0.530251 0.0765251 0 0.0439071 -0.168364 2 0.505976 -0.0246399 0 
4.3 -0.321796 -0.120502 2 0.531262 0.0772367 0 0.0540216 -0.16884 2 0.505472 -0.0229582 0 
4.32 -0.311161 -0.11895 2 0.532242 0.0779677 0 0.0641258 -0.169282 2 0.504946 -0.021313 0 
4.34 -0.300506 -0.117383 2 0.533191 0.078718 0 0.0742193 -0.169692 2 0.504398 -0.0197044 0 
4.36 -0.289833 -0.115801 2 0.534108 0.0794877 0 0.0843016 -0.170071 2 0.50383 -0.0181323 0 
4.38 -0.279142 -0.114204 2 0.534994 0.0802767 0 0.0943723 -0.170418 2 0.503239 -0.0165966 0 
4.4 -0.268434 -0.11259 2 0.53585 0.0810852 0 0.104431 -0.170735 2 0.502628 -0.0150975 0 
4.42 -0.257708 -0.11096 2 0.536674 0.081913 0 0.114477 -0.171022 2 0.501995 -0.0136349 0 
4.44 -0.246967 -0.109314 2 0.537467 0.0827602 0 0.124511 -0.171281 2 0.501341 -0.0122089 0 
4.46 -0.23621 -0.10765 2 0.538228 0.0836267 0 0.134531 -0.171511 2 0.500665 -0.0108193 0 
4.48 -0.225438 -0.105968 2 0.538959 0.0845126 0 0.144537 -0.171714 2 0.499968 -0.00946622 0 
4.5 -0.214652 -0.104269 2 0.539658 0.0854179 0 0.154529 -0.17189 2 0.49925 -0.00814967 0 
4.52 -0.203852 -0.102552 2 0.540326 0.0863425 0 0.164507 -0.17204 2 0.49851 -0.00686964 0 
4.54 -0.193039 -0.100815 2 0.540963 0.0872866 0 0.17447 -0.172165 2 0.497749 -0.00562611 0 
4.56 -0.182213 -0.09906 2 0.541569 0.08825 0 0.184417 -0.172265 2 0.496967 -0.0044191 0 
4.58 -0.171376 -0.0972852 2 0.542143 0.0892327 0 0.194348 -0.172342 2 0.496163 -0.0032486 0 
4.6 -0.160528 -0.0954905 2 0.542687 0.0902348 0 0.204263 -0.172395 2 0.495338 -0.00211462 0 
4.62 -0.149669 -0.0936756 2 0.543199 0.0912563 0 0.214162 -0.172427 2 0.494491 -0.00101714 0 
4.64 -0.1388 -0.0918401 2 0.54368 0.0922972 0 0.224043 -0.172436 2 0.493623 4.38203e-05 0 
4.66 -0.127922 -0.0899836 2 0.54413 0.0933575 0 0.233906 -0.172425 2 0.492734 0.00106827 0 
4.68 -0.117035 -0.0881057 2 0.544548 0.0944371 0 0.243752 -0.172394 2 0.491823 0.00205621 0 
4.7 -0.10614 -0.086206 2 0.544936 0.095536 0 0.253579 -0.172343 2 0.490891 0.00300764 0 
4.72 -0.095238 -0.0842841 2 0.545292 0.0966544 0 0.263387 -0.172274 2 0.489938 0.00392255 0 
4.74 -0.0843288 -0.0823397 2 0.545617 0.0977921 0 0.273176 -0.172186 2 0.488963 0.00480095 0 
4.76 -0.0734135 -0.0803723 2 0.545911 0.0989492 0 0.282946 -0.172082 2 0.487967 0.00564284 0 
4.78 -0.0624926 -0.0783816 2 0.546174 0.100126 0 0.292695 -0.171961 2 0.486949 0.00644822 0 
4.8 -0.0515667 -0.0763672 2 0.546405 0.101321 0 0.302424 -0.171824 2 0.48591 0.00721708 0 
4.82 -0.0406366 -0.0743286 2 0.546606 0.102537 0 0.312131 -0.171672 2 0.48485 0.00794944 0 
4.84 -0.0297027 -0.0722656 2 0.546775 0.103771 0 0.321818 -0.171506 2 0.483769 0.00864528 0 
4.86 -0.0187658 -0.0701776 2 0.546913 0.105025 0 0.331482 -0.171327 2 0.482665 0.00930461 0 
4.88 -0.0078264 -0.0680644 2 0.54702 0.106298 0 0.341124 -0.171134 2 0.481541 0.00992742 0 
4.9 0.00311481 -0.0659256 2 0.547096 0.107591 0 0.350743 -0.17093 2 0.480395 0.0105137 0 
4.92 0.0140572 -0.0637607 2 0.54714 0.108903 0 0.36034 -0.170714 2 0.479228 0.0110635 0 
4.94 0.0250002 -0.0615693 2 0.547153 0.110235 0 0.369912 -0.170488 2 0.47804 0.0115768 0 
4.96 0.0359431 -0.0593511 2 0.547135 0.111585 0 0.379461 -0.170251 2 0.47683 0.0120536 0 
4.98 0.0468854 -0.0571058 2 0.547086 0.112956 0 0.388985 -0.170006 2 0.475599 0.0124938 0 
5 0.0578264 -0.0548328 2 0.547006 0.114345 0 0.398485 -0.169752 2 0.474346 0.0128976 0 
5.02 0.0687681 -0.05256 2 0.547155 0.112944 0 0.407952 -0.169479 2 0.472325 0.0143726 0 
5.04 0.0797123 -0.0503148 2 0.547257 0.111572 0 0.417378 -0.169177 2 0.470306 0.0157928 0 
5.06 0.090658 -0.0480969 2 0.547312 0.11023 0 0.426764 -0.168848 2 0.46829 0.0171582 0 
5.08 0.101604 -0.0459055 2 0.54732 0.108917 0 0.43611 -0.168491 2 0.466276 0.0184687 0 
5.1 0.112551 -0.04374 2 0.547281 0.107633 0 0.445415 -0.168109 2 0.464265 0.0197245 0 
5.12 0.123495 -0.0416 2 0.547196 0.106378 0 0.45468 -0.167703 2 0.462257 0.0209254 0 
5.14 0.134438 -0.0394847 2 0.547064 0.105153 0 0.463905 -0.167273 2 0.460251 0.0220715 0 
5.16 0.145378 -0.0373936 2 0.546885 0.103958 0 0.47309 -0.16682 2 0.458248 0.0231627 0 
5.18 0.156313 -0.0353262 2 0.546659 0.102792 0 0.482235 -0.166347 2 0.456247 0.0241991 0 
5.2 0.167244 -0.0332818 2 0.546386 0.101655 0 0.49134 -0.165853 2 0.454249 0.0251807 0 
5.22 0.178168 -0.0312598 2 0.546066 0.100547 0 0.500405 -0.16534 2 0.452254 0.0261075 0 
5.24 0.189086 -0.0292597 2 0.5457 0.0994689 0 0.50943 -0.164809 2 0.450261 0.0269794 0 
5.26 0.199996 -0.0272808 2 0.545286 0.0984201 0 0.518416 -0.164261 2 0.44827 0.0277966 0 
5.28 0.210897 -0.0253227 2 0.544826 0.0974007 0 0.527361 -0.163697 2 0.446282 0.0285589 0 
5.3 0.221789 -0.0233846 2 0.544319 0.0964106 0 0.536267 -0.163119 2 0.444297 0.0292663 0 
5.32 0.23267 -0.0214661 2 0.543765 0.0954499 0 0.545133 -0.162527 2 0.442315 0.029919 0 
5.34 0.243539 -0.0195664 2 0.543165 0.0945185 0 0.553959 -0.161922 2 0.440335 0.0305168 0 
5.36 0.254396 -0.0176851 2 0.542517 0.0936165 0 0.562746 -0.161307 2 0.438357 0.0310598 0 
5.38 0.265239 -0.0158216 2 0.541823 0.0927439 0 0.571494 -0.16068 2 0.436382 0.0315479 0 
5.4 0.276068 -0.0139752 2 0.541082 0.0919006 0 0.580202 -0.160045 2 0.43441 0.0319813 0 
5.42 0.286882 -0.0121454 2 0.540294 0.0910867 0 0.58887 -0.159402 2 0.43244 0.0323598 0 
5.44 0.29768 -0.0103315 2 0.539459 0.0903022 0 0.597499 -0.158751 2 0.430473 0.0326834 0 
5.46 0.30846 -0.00853307 2 0.538577 0.089547 0 0.606089 -0.158095 2 0.428508 0.0329523 0 
5.48 0.319223 -0.00674943 2 0.537649 0.0888212 0 0.61464 -0.157433 2 0.426546 0.0331663 0 
5.5 0.329966 -0.00498002 2 0.536674 0.0881248 0 0.623151 -0.156768 2 0.424587 0.0333255 0 
5.52 0.340689 -0.00322425 2 0.535652 0.0874577 0 0.631623 -0.156101 2 0.42263 0.0334299 0 
5.54 0.351392 -0.00148152 2 0.534583 0.08682 0 0.640056 -0.155431 2 0.420676 0.0334794 0 
5.56 0.362072 0.000248749 2 0.533467 0.0862116 0 0.64845 -0.154762 2 0.418724 0.0334742 0 
5.58 0.37273 0.00196714 2 0.532304 0.0856327 0 0.656805 -0.154093 2 0.416775 0.0334141 0 
5.6 0.383364 0.00367425 2 0.531095 0.085083 0 0.665121 -0.153426 2 0.414828 0.0332991 0 
5.62 0.393974 0.00537066 2 0.529838 0.0845628 0 0.673398 -0.152761 2 0.412884 0.0331294 0 
5.64 0.404557 0.00705696 2 0.528535 0.0840719 0 0.681637 -0.152101 2 0.410943 0.0329048 0 
5.66 0.415115 0.00873373 2 0.527185 0.0836104 0 0.689836 -0.151445 2 0.409004 0.0326254 0 
5.68 0.425644 0.0104016 2 0.525788 0.0831782 0 0.697997 -0.150796 2 0.407068 0.0322911 0 
5.7 0.436146 0.0120611 2 0.524345 0.0827754 0 0.706119 -0.150154 2 0.405134 0.0319021 0 
5.72 0.446618 0.0137128 2 0.522854 0.082402 0 0.714202 -0.14952 2 0.403203 0.0314582 0 
5.74 0.45706 0.0153573 2 0.521317 0.0820579 0 0.722247 -0.148896 2 0.401275 0.0309595 0 
5.76 0.46747 0.0169953 2 0.519733 0.0817432 0 0.730253 -0.148282 2 0.399349 0.0304059 0 
5.78 0.477849 0.0186273 2 0.518102 0.0814579 0 0.738221 -0.14768 2 0.397425 0.0297976 0 
5.8 0.488194 0.0202538 2 0.516424 0.0812019 0 0.74615 -0.147091 2 0.395505 0.0291344 0 
5.82 0.498505 0.0218755 2 0.514699 0.0809753 0 0.754041 -0.146515 2 0.393586 0.0284163 0 
5.84 0.508782 0.023493 2 0.512928 0.080778 0 0.761894 -0.145955 2 0.391671 0.0276435 0 
5.86 0.519022 0.0251068 2 0.51111 0.0806102 0 0.769708 -0.14541 2 0.389758 0.0268158 0 
5.88 0.529226 0.0267176 2 0.509244 0.0804716 0 0.777484 -0.144882 2 0.387847 0.0259333 0 
5.9 0.539392 0.0283259 2 0.507332 0.0803625 0 0.785222 -0.144373 2 0.385939 0.024996 0 
5.92 0.549519 0.0299323 2 0.505374 0.0802827 0 0.792922 -0.143883 2 0.384034 0.0240038 0 
5.94 0.559606 0.0315374 2 0.503368 0.0802323 0 0.800583 -0.143413 2 0.382131 0.0229569 0 
5.96 0.569653 0.0331418 2 0.501315 0.0802112 0 0.808207 -0.142965 2 0.380231 0.021855 0 
5.98 0.579659 0.0347461 2 0.499216 0.0802195 0 0.815793 -0.142539 2 0.378334 0.0206984 0 
6 0.589622 0.0363508 2 0.49707 0.0802572 0 0.82334 -0.142137 2 0.376439 0.019487 0 
6.02 0.599544 0.0379452 2 0.495148 0.0791977 0 0.830842 -0.141752 2 0.373696 0.0190703 0 
6.04 0.609427 0.0395191 2 0.493203 0.0782019 0 0.838288 -0.141375 2 0.370953 0.0185873 0 
6.06 0.619272 0.0410737 2 0.491235 0.0772697 0 0.84568 -0.141009 2 0.368208 0.0180379 0 
6.08 0.629077 0.0426103 2 0.489244 0.0764012 0 0.853016 -0.140654 2 0.365461 0.0174222 0 
6.1 0.638841 0.0441302 2 0.48723 0.0755962 0 0.860298 -0.140312 2 0.362713 0.0167401 0 
6.12 0.648566 0.0456346 2 0.485192 0.0748549 0 0.867525 -0.139985 2 0.359964 0.0159917 0 
6.14 0.658249 0.0471248 2 0.483131 0.0741773 0 0.874697 -0.139673 2 0.357213 0.0151769 0 
6.16 0.667891 0.0486021 2 0.481047 0.0735632 0 0.881813 -0.139378 2 0.354461 0.0142958 0 
6.18 0.677491 0.0500678 2 0.47894 0.0730128 0 0.888875 -0.139102 2 0.351707 0.0133483 0 
6.2 0.687048 0.051523 2 0.476809 0.072526 0 0.895882 -0.138845 2 0.348952 0.0123345 0 
6.22 0.696563 0.0529692 2 0.474655 0.0721029 0 0.902833 -0.138609 2 0.346196 0.0112543 0 
6.24 0.706034 0.0544076 2 0.472479 0.0717434 0 0.90973 -0.138395 2 0.343438 0.0101078 0 
6.26 0.715462 0.0558394 2 0.470278 0.0714475 0 0.916571 -0.138205 2 0.340679 0.00889491 0 
6.28 0.724845 0.0572659 2 0.468055 0.0712152 0 0.923357 -0.13804 2 0.337918 0.00761567 0 
6.3 0.734184 0.0586884 2 0.465808 0.0710465 0 0.930087 -0.137901 2 0.335156 0.00627009 0 
6.32 0.743477 0.0601082 2 0.463539 0.0709415 0 0.936763 -0.137789 2 0.332392 0.00485815 0 
6.34 0.752725 0.0615265 2 0.461246 0.0709002 0 0.943383 -0.137707 2 0.329627 0.00337986 0 
6.36 0.761927 0.0629446 2 0.458929 0.0709224 0 0.949948 -0.137654 2 0.326861 0.00183522 0 
6.38 0.771082 0.0643638 2 0.45659 0.0710083 0 0.956458 -0.137634 2 0.324093 0.000224229 0 
6.4 0.78019 0.0657854 2 0.454227 0.0711578 0 0.962912 -0.137646 2 0.321324 -0.00145312 0 
6.42 0.789251 0.0672106 2 0.451841 0.0713709 0 0.96931 -0.137692 2 0.318553 -0.00319681 0 
6.44 0.798264 0.0686406 2 0.449432 0.0716477 0 0.975654 -0.137774 2 0.315781 -0.00500686 0 
6.46 0.807228 0.0700769 2 0.447 0.0719881 0 0.981942 -0.137893 2 0.313008 -0.00688326 0 
6.48 0.816144 0.0715206 2 0.444545 0.0723921 0 0.988174 -0.13805 2 0.310233 -0.00882601 0 
6.5 0.82501 0.072973 2 0.442066 0.0728598 0 0.994351 -0.138247 2 0.307456 -0.0108351 0 
6.52 0.833826 0.0744354 2 0.439564 0.073391 0 1.00047 -0.138484 2 0.304679 -0.0129106 0 
6.54 0.842592 0.0759091 2 0.437039 0.0739859 0 1.00654 -0.138763 2 0.301899 -0.0150524 0 
6.56 0.851308 0.0773953 2 0.43449 0.0746445 0 1.01255 -0.139086 2 0.299119 -0.0172605 0 
6.58 0.859972 0.0788953 2 0.431919 0.0753667 0 1.0185 -0.139454 2 0.296337 -0.019535 0 
6.6 0.868584 0.0804104 2 0.429324 0.0761524 0 1.0244 -0.139868 2 0.293553 -0.0218759 0 
6.62 0.877145 0.0819418 2 0.426706 0.0770019 0 1.03024 -0.14033 2 0.290768 -0.0242831 0 
6.64 0.885652 0.0834909 2 0.424065 0.0779149 0 1.03603 -0.14084 2 0.287982 -0.0267567 0 
6.66 0.894107 0.0850588 2 0.421401 0.0788916 0 1.04176 -0.1414 2 0.285194 -0.0292966 0 
6.68 0.902508 0.0866469 2 0.418713 0.0799319 0 1.04744 -0.142012 2 0.282405 -0.0319029 0 
6.7 0.910855 0.0882565 2 0.416002 0.0810359 0 1.05306 -0.142677 2 0.279615 -0.0345755 0 
6.72 0.919148 0.0898888 2 0.413268 0.0822034 0 1.05862 -0.143396 2 0.276823 -0.0373144 0 
6.74 0.927386 0.0915451 2 0.410511 0.0834346 0 1.06413 -0.14417 2 0.274029 -0.0401198 0 
6.76 0.935568 0.0932266 2 0.40773 0.0847295 0 1.06959 -0.145001 2 0.271234 -0.0429914 0 
6.78 0.943695 0.0949347 2 0.404927 0.0860879 0 1.07498 -0.14589 2 0.268438 -0.0459295 0 
6.8 0.951765 0.0966706 2 0.4021 0.08751 0 1.08032 -0.146839 2 0.265641 -0.0489338 0 
6.82 0.959779 0.0984355 2 0.39925 0.0889957 0 1.08561 -0.147848 2 0.262841 -0.0520046 0 
6.84 0.967735 0.100231 2 0.396376 0.0905451 0 1.09084 -0.148919 2 0.260041 -0.0551417 0 
6.86 0.975634 0.102058 2 0.39348 0.0921581 0 1.09601 -0.150054 2 0.257239 -0.0583451 0 
6.88 0.983474 0.103918 2 0.39056 0.0938347 0 1.10113 -0.151254 2 0.254436 -0.0616149 0 
6.9 0.991256 0.105812 2 0.387617 0.0955749 0 1.10619 -0.152519 2 0.251631 -0.064951 0 
6.92 0.998979 0.107741 2 0.384651 0.0973788 0 1.11119 -0.153852 2 0.248825 -0.0683535 0 
6.94 1.00664 0.109707 2 0.381662 0.0992463 0 1.11614 -0.155254 2 0.246017 -0.0718223 0 
6.96 1.01425 0.111711 2 0.378649 0.101177 0 1.12103 -0.156725 2 0.243208 -0.0753575 0 
6.98 1.02179 0.113755 2 0.375613 0.103172 0 1.12587 -0.158268 2 0.240398 -0.0789591 0 
7 1.02927 0.115839 2 0.372554 0.105231 0 1.13065 -0.159884 2 0.237586 -0.082627 0 
7.02 1.03668 0.118012 2 0.36844 0.112137 0 1.13538 -0.161611 2 0.235912 -0.090084 0 
7.04 1.04401 0.120324 2 0.364343 0.118975 0 1.14008 -0.163487 2 0.234223 -0.097463 0 
7.06 1.05125 0.122771 2 0.360264 0.125745 0 1.14475 -0.165509 2 0.232519 -0.104764 0 
7.08 1.05842 0.125353 2 0.356203 0.132445 0 1.14939 -0.167677 2 0.230801 -0.111986 0 
7.1 1.0655 0.128068 2 0.352159 0.139076 0 1.15398 -0.169988 2 0.229067 -0.119131 0 
7.12 1.0725 0.130916 2 0.348133 0.145639 0 1.15855 -0.172442 2 0.227318 -0.126197 0 
7.14 1.07943 0.133893 2 0.344124 0.152133 0 1.16308 -0.175036 2 0.225554 -0.133185 0 
7.16 1.08627 0.137 2 0.340134 0.158557 0 1.16757 -0.177769 2 0.223776 -0.140095 0 
7.18 1.09303 0.140235 2 0.33616 0.164913 0 1.17203 -0.180639 2 0.221982 -0.146927 0 
7.2 1.09972 0.143596 2 0.332204 0.1712 0 1.17645 -0.183645 2 0.220173 -0.153681 0 
7.22 1.10632 0.147083 2 0.328266 0.177418 0 1.18083 -0.186786 2 0.21835 -0.160356 0 
7.24 1.11285 0.150693 2 0.324346 0.183568 0 1.18518 -0.190059 2 0.216511 -0.166954 0 
7.26 1.11929 0.154425 2 0.320443 0.189648 0 1.18949 -0.193463 2 0.214657 -0.173473 0 
7.28 1.12566 0.158278 2 0.316557 0.19566 0 1.19377 -0.196997 2 0.212789 -0.179914 0 
7.3 1.13196 0.162251 2 0.31269 0.201602 0 1.19801 -0.200659 2 0.210905 -0.186277 0 
7.32 1.13817 0.166342 2 0.30884 0.207476 0 1.20221 -0.204448 2 0.209007 -0.192562 0 
7.34 1.14431 0.170549 2 0.305007 0.213281 0 1.20637 -0.208361 2 0.207093 -0.198768 0 
7.36 1.15037 0.174873 2 0.301192 0.219017 0 1.21049 -0.212398 2 0.205165 -0.204897 0 
7.38 1.15636 0.17931 2 0.297395 0.224684 0 1.21457 -0.216557 2 0.203221 -0.210947 0 
7.4 1.16227 0.183859 2 0.293615 0.230282 0 1.21862 -0.220835 2 0.201263 -0.216919 0 
7.42 1.1681 0.188521 2 0.289853 0.235811 0 1.22262 -0.225233 2 0.199289 -0.222813 0 
7.44 1.17386 0.193291 2 0.286108 0.241272 0 1.22659 -0.229747 2 0.197301 -0.228629 0 
7.46 1.17955 0.198171 2 0.282382 0.246663 0 1.23052 -0.234378 2 0.195298 -0.234367 0 
7.48 1.18516 0.203158 2 0.278672 0.251986 0 1.2344 -0.239122 2 0.193279 -0.240026 0 
7.5 1.19069 0.20825 2 0.274981 0.25724 0 1.23825 -0.243978 2 0.191246 -0.245608 0 
7.52 1.19616 0.213447 2 0.271307 0.262425 0 1.24205 -0.248945 2 0.189198 -0.251111 0 
7.54 1.20155 0.218746 2 0.26765 0.267541 0 1.24581 -0.254022 2 0.187134 -0.256536 0 
7.56 1.20686 0.224148 2 0.264011 0.272588 0 1.24954 -0.259206 2 0.185056 -0.261883 0 
7.58 1.21211 0.229649 2 0.26039 0.277566 0 1.25322 -0.264497 2 0.182963 -0.267152 0 
7.6 1.21728 0.23525 2 0.256786 0.282476 0 1.25685 -0.269892 2 0.180855 -0.272342 0 
7.62 1.22238 0.240948 2 0.2532 0.287316 0 1.26045 -0.27539 2 0.178731 -0.277455 0 
7.64 1.22741 0.246742 2 0.249632 0.292088 0 1.264 -0.28099 2 0.176593 -0.282489 0 
7.66 1.23236 0.252631 2 0.246081 0.296791 0 1.26751 -0.286689 2 0.17444 -0.287445 0 
7.68 1.23725 0.258613 2 0.242548 0.301424 0 1.27098 -0.292487 2 0.172272 -0.292323 0 
7.7 1.24207 0.264688 2 0.239032 0.305989 0 1.2744 -0.298381 2 0.170089 -0.297123 0 
7.72 1.24681 0.270852 2 0.235534 0.310486 0 1.27778 -0.304371 2 0.167891 -0.301845 0 
7.74 1.25149 0.277107 2 0.232053 0.314913 0 1.28112 -0.310455 2 0.165677 -0.306488 0 
7.76 1.25609 0.283449 2 0.228591 0.319271 0 1.28441 -0.31663 2 0.163449 -0.311054 0 
7.78 1.26063 0.289877 2 0.225145 0.323561 0 1.28766 -0.322896 2 0.161206 -0.315541 0 
7.8 1.2651 0.29639 2 0.221718 0.327781 0 1.29086 -0.329251 2 0.158948 -0.31995 0 
7.82 1.2695 0.302988 2 0.218308 0.331933 0 1.29402 -0.335694 2 0.156675 -0.324281 0 
7.84 1.27383 0.309667 2 0.214915 0.336016 0 1.29713 -0.342222 2 0.154387 -0.328534 0 
7.86 1.2781 0.316428 2 0.21154 0.34003 0 1.30019 -0.348835 2 0.152084 -0.332708 0 
7.88 1.28229 0.323268 2 0.208183 0.343975 0 1.30321 -0.35553 2 0.149767 -0.336805 0 
7.9 1.28642 0.330186 2 0.204844 0.347851 0 1.30618 -0.362306 2 0.147434 -0.340823 0 
7.92 1.29049 0.337182 2 0.201522 0.351658 0 1.30911 -0.369162 2 0.145086 -0.344763 0 
7.94 1.29449 0.344252 2 0.198217 0.355397 0 1.31199 -0.376096 2 0.142723 -0.348625 0 
7.96 1.29842 0.351397 2 0.19493 0.359066 0 1.31482 -0.383107 2 0.140345 -0.352409 0 
7.98 1.30228 0.358615 2 0.191661 0.362667 0 1.3176 -0.390192 2 0.137952 -0.356114 0 
8 1.30608 0.365903 2 0.18841 0.366199 0 1.32033 -0.397351 2 0.135544 -0.359742 0 
8.02 1.30983 0.373264 2 0.186328 0.369885 0 1.32304 -0.404578 2 0.135156 -0.362991 0 
8.04 1.31354 0.380698 2 0.184257 0.373443 0 1.32574 -0.41187 2 0.134754 -0.366113 0 
8.06 1.3172 0.388201 2 0.182198 0.376872 0 1.32843 -0.419222 2 0.13434 -0.369109 0 
8.08 1.32082 0.395772 2 0.180151 0.380173 0 1.33111 -0.426633 2 0.133914 -0.371978 0 
8.1 1.32441 0.403407 2 0.178114 0.383344 0 1.33379 -0.4341 2 0.133474 -0.374721 0 
8.12 1.32795 0.411105 2 0.176089 0.386387 0 1.33645 -0.441621 2 0.133022 -0.377338 0 
8.14 1.33145 0.418862 2 0.174075 0.389301 0 1.33911 -0.449193 2 0.132557 -0.379828 0 
8.16 1.33491 0.426676 2 0.172073 0.392086 0 1.34175 -0.456813 2 0.13208 -0.382192 0 
8.18 1.33833 0.434544 2 0.170082 0.394742 0 1.34439 -0.46448 2 0.131589 -0.38443 0 
8.2 1.34172 0.442465 2 0.168102 0.39727 0 1.34702 -0.47219 2 0.131086 -0.386541 0 
8.22 1.34506 0.450434 2 0.166133 0.399668 0 1.34963 -0.479941 2 0.130571 -0.388525 0 
8.24 1.34836 0.458451 2 0.164176 0.401938 0 1.35224 -0.48773 2 0.130043 -0.390384 0 
8.26 1.35163 0.466511 2 0.162231 0.404079 0 1.35484 -0.495555 2 0.129502 -0.392116 0 
8.28 1.35485 0.474613 2 0.160296 0.406092 0 1.35742 -0.503414 2 0.128948 -0.393721 0 
8.3 1.35804 0.482754 2 0.158373 0.407975 0 1.35999 -0.511303 2 0.128381 -0.395201 0 
8.32 1.36119 0.490931 2 0.156461 0.40973 0 1.36256 -0.519221 2 0.127802 -0.396553 0 
8.34 1.3643 0.499142 2 0.154561 0.411356 0 1.36511 -0.527164 2 0.12721 -0.39778 0 
8.36 1.36737 0.507385 2 0.152672 0.412853 0 1.36764 -0.535131 2 0.126606 -0.39888 0 
8.38 1.3704 0.515655 2 0.150794 0.414221 0 1.37017 -0.543119 2 0.125989 -0.399854 0 
8.4 1.3734 0.523953 2 0.148927 0.415461 0 1.37268 -0.551125 2 0.125359 -0.400701 0 
8.42 1.37636 0.532273 2 0.147072 0.416572 0 1.37518 -0.559146 2 0.124716 -0.401422 0 
8.44 1.37928 0.540615 2 0.145228 0.417554 0 1.37767 -0.567181 2 0.124061 -0.402016 0 
8.46 1.38217 0.548974 2 0.143396 0.418407 0 1.38015 -0.575226 2 0.123393 -0.402484 0 
8.48 1.38502 0.55735 2 0.141575 0.419131 0 1.38261 -0.583279 2 0.122712 -0.402826 0 
8.5 1.38783 0.565739 2 0.139765 0.419727 0 1.38506 -0.591338 2 0.122019 -0.403041 0 
8.52 1.39061 0.574138 2 0.137967 0.420193 0 1.38749 -0.5994 2 0.121313 -0.40313 0 
8.54 1.39335 0.582546 2 0.13618 0.420531 0 1.38991 -0.607462 2 0.120594 -0.403093 0 
8.56 1.39606 0.590959 2 0.134404 0.42074 0 1.39231 -0.615523 2 0.119863 -0.402929 0 
8.58 1.39873 0.599374 2 0.132639 0.420821 0 1.3947 -0.623579 2 0.119118 -0.402639 0 
8.6 1.40136 0.607791 2 0.130886 0.420772 0 1.39708 -0.631627 2 0.118362 -0.402222 0 
8.62 1.40396 0.616204 2 0.129144 0.420595 0 1.39944 -0.639667 2 0.117592 -0.401679 0 
8.64 1.40653 0.624613 2 0.127414 0.420289 0 1.40178 -0.647694 2 0.11681 -0.40101 0 
8.66 1.40906 0.633015 2 0.125695 0.419854 0 1.40411 -0.655706 2 0.116015 -0.400214 0 
8.68 1.41156 0.641407 2 0.123987 0.419291 0 1.40642 -0.663702 2 0.115207 -0.399292 0 
8.7 1.41402 0.649786 2 0.122291 0.418598 0 1.40872 -0.671677 2 0.114387 -0.398244 0 
8.72 1.41645 0.65815 2 0.120605 0.417777 0 1.411 -0.67963 2 0.113554 -0.397069 0 
8.74 1.41884 0.666496 2 0.118932 0.416827 0 1.41326 -0.687559 2 0.112708 -0.395768 0 
8.76 1.42121 0.674822 2 0.117269 0.415748 0 1.4155 -0.69546 2 0.111849 -0.39434 0 
8.78 1.42353 0.683125 2 0.115618 0.41454 0 1.41773 -0.703332 2 0.110978 -0.392786 0 
8.8 1.42583 0.691403 2 0.113978 0.413204 0 1.41994 -0.711171 2 0.110094 -0.391105 0 
8.82 1.42809 0.699652 2 0.11235 0.411739 0 1.42214 -0.718975 2 0.109198 -0.389299 0 
8.84 1.43032 0.707872 2 0.110733 0.410145 0 1.42431 -0.726742 2 0.108289 -0.387365 0 
8.86 1.43252 0.716057 2 0.109127 0.408422 0 1.42647 -0.734469 2 0.107367 -0.385306 0 
8.88 1.43469 0.724208 2 0.107532 0.40657 0 1.42861 -0.742153 2 0.106432 -0.38312 0 
8.9 1.43682 0.732319 2 0.105949 0.40459 0 1.43073 -0.749793 2 0.105485 -0.380807 0 
8.92 1.43893 0.74039 2 0.104377 0.402481 0 1.43283 -0.757385 2 0.104525 -0.378369 0 
8.94 1.441 0.748418 2 0.102817 0.400243 0 1.43491 -0.764927 2 0.103552 -0.375803 0 
8.96 1.44304 0.756399 2 0.101268 0.397876 0 1.43697 -0.772416 2 0.102567 -0.373112 0 
8.98 1.44505 0.764332 2 0.09973 0.39538 0 1.43901 -0.77985 2 0.101569 -0.370294 0 
9 1.44703 0.772213 2 0.0982035 0.392756 0 1.44103 -0.787227 2 0.100558 -0.36735 0 
9.02 1.44898 0.780027 2 0.0966944 0.388594 0 1.44303 -0.794535 2 0.0995686 -0.363425 0 
9.04 1.4509 0.787756 2 0.0951667 0.384282 0 1.44501 -0.801763 2 0.0985377 -0.35936 0 
9.06 1.45278 0.795397 2 0.0936205 0.379819 0 1.44697 -0.808908 2 0.0974652 -0.355156 0 
9.08 1.45464 0.802948 2 0.0920557 0.375205 0 1.44891 -0.815968 2 0.0963509 -0.350811 0 
9.1 1.45647 0.810405 2 0.0904723 0.370441 0 1.45083 -0.82294 2 0.0951949 -0.346328 0 
9.12 1.45826 0.817765 2 0.0888704 0.365526 0 1.45272 -0.829821 2 0.0939972 -0.341704 0 
9.14 1.46002 0.825025 2 0.0872499 0.36046 0 1.45459 -0.836607 2 0.0927578 -0.336941 0 
9.16 1.46175 0.832182 2 0.0856108 0.355243 0 1.45643 -0.843297 2 0.0914767 -0.332038 0 
9.18 1.46345 0.839233 2 0.0839531 0.349875 0 1.45825 -0.849888 2 0.0901538 -0.326996 0 
9.2 1.46511 0.846176 2 0.0822769 0.344357 0 1.46003 -0.856376 2 0.0887893 -0.321814 0 
9.22 1.46674 0.853007 2 0.0805821 0.338688 0 1.4618 -0.862759 2 0.087383 -0.316492 0 
9.24 1.46833 0.859723 2 0.0788688 0.332868 0 1.46353 -0.869035 2 0.085935 -0.311031 0 
9.26 1.46989 0.86632 2 0.0771368 0.326897 0 1.46523 -0.8752 2 0.0844453 -0.30543 0 
9.28 1.47142 0.872797 2 0.0753863 0.320776 0 1.46691 -0.881251 2 0.0829139 -0.299689 0 
9.3 1.47291 0.87915 2 0.0736172 0.314504 0 1.46855 -0.887186 2 0.0813407 -0.293808 0 
9.32 1.47436 0.885377 2 0.0718296 0.308081 0 1.47016 -0.893003 2 0.0797259 -0.287788 0 
9.34 1.47578 0.891473 2 0.0700234 0.301507 0 1.47174 -0.898697 2 0.0780693 -0.281628 0 
9.36 1.47716 0.897436 2 0.0681986 0.294783 0 1.47328 -0.904267 2 0.076371 -0.275329 0 
9.38 1.47851 0.903263 2 0.0663552 0.287908 0 1.47479 -0.909709 2 0.074631 -0.26889 0 
9.4 1.47982 0.908951 2 0.0644933 0.280882 0 1.47627 -0.915021 2 0.0728493 -0.262311 0 
9.42 1.48109 0.914497 2 0.0626128 0.273705 0 1.47771 -0.920201 2 0.0710259 -0.255593 0 
9.44 1.48232 0.919898 2 0.0607137 0.266378 0 1.47911 -0.925244 2 0.0691607 -0.248734 0 
9.46 1.48352 0.925151 2 0.0587961 0.2589 0 1.48047 -0.930149 2 0.0672538 -0.241737 0 
9.48 1.48467 0.930253 2 0.0568598 0.251271 0 1.4818 -0.934913 2 0.0653053 -0.234599 0 
9.5 1.48579 0.935201 2 0.0549051 0.243491 0 1.48308 -0.939532 2 0.063315 -0.227322 0 
9.52 1.48687 0.939992 2 0.0529317 0.23556 0 1.48433 -0.944005 2 0.061283 -0.219905 0 
9.54 1.48791 0.944623 2 0.0509398 0.227479 0 1.48554 -0.948328 2 0.0592092 -0.212349 0 
9.56 1.48891 0.94909 2 0.0489293 0.219247 0 1.4867 -0.952498 2 0.0570938 -0.204652 0 
9.58 1.48986 0.953391 2 0.0469002 0.210864 0 1.48782 -0.956513 2 0.0549366 -0.196817 0 
9.6 1.49078 0.957524 2 0.0448526 0.202331 0 1.4889 -0.960369 2 0.0527378 -0.188841 0 
9.62 1.49166 0.961484 2 0.0427864 0.193646 0 1.48993 -0.964065 2 0.0504972 -0.180726 0 
9.64 1.49249 0.965269 2 0.0407016 0.184811 0 1.49092 -0.967598 2 0.0482149 -0.172471 0 
9.66 1.49329 0.968875 2 0.0385982 0.175826 0 1.49186 -0.970963 2 0.0458908 -0.164077 0 
9.68 1.49404 0.972301 2 0.0364763 0.166689 0 1.49275 -0.97416 2 0.0435251 -0.155542 0 
9.7 1.49475 0.975542 2 0.0343358 0.157402 0 1.4936 -0.977184 2 0.0411176 -0.146869 0 
9.72 1.49541 0.978596 2 0.0321768 0.147964 0 1.4944 -0.980034 2 0.0386685 -0.138055 0 
9.74 1.49603 0.981459 2 0.0299991 0.138375 0 1.49514 -0.982705 2 0.0361776 -0.129102 0 
9.76 1.49661 0.98413 2 0.0278029 0.128635 0 1.49584 -0.985197 2 0.033645 -0.120009 0 
9.78 1.49714 0.986604 2 0.0255882 0.118745 0 1.49649 -0.987505 2 0.0310707 -0.110776 0 
9.8 1.49763 0.988878 2 0.0233548 0.108703 0 1.49709 -0.989627 2 0.0284547 -0.101404 0 
9.82 1.49808 0.990951 2 0.0211029 0.0985115 0 1.49763 -0.99156 2 0.0257969 -0.0918922 0 
9.84 1.49848 0.992818 2 0.0188324 0.0881688 0 1.49812 -0.993302 2 0.0230975 -0.0822407 0 
9.86 1.49883 0.994477 2 0.0165434 0.0776754 0 1.49855 -0.994849 2 0.0203563 -0.0724494 0 
9.88 1.49914 0.995924 2 0.0142357 0.0670312 0 1.49893 -0.996199 2 0.0175734 -0.0625185 0 
9.9 1.4994 0.997157 2 0.0119095 0.0562362 0 1.49925 -0.997349 2 0.0147488 -0.0524479 0 
9.92 1.49962 0.998172 2 0.00956478 0.0452905 0 1.49952 -0.998296 2 0.0118825 -0.0422377 0 
9.94 1.49978 0.998967 2 0.00720144 0.034194 0 1.49973 -0.999037 2 0.00897441 -0.0318878 0 
9.96 1.4999 0.999539 2 0.00481953 0.0229468 0 1.49988 -0.99957 2 0.00602466 -0.0213982 0 
9.98 1.49998 0.999884 2 0.00241905 0.0115488 0 1.49997 -0.999892 2 0.00303319 -0.0107689 0 
10 1.5 1 2 1.21417e-09 5.81208e-09 0 1.5 -1 2 1.52702e-09 -5.41938e-09 0 
