duration,x^0,x^1,x^2,x^3,x^4,x^5,x^6,x^7,y^0,y^1,y^2,y^3,y^4,y^5,y^6,y^7,z^0,z^1,z^2,z^3,z^4,z^5,z^6,z^7,yaw^0,yaw^1,yaw^2,yaw^3,yaw^4,yaw^5,yaw^6,yaw^7
1.96,-0.0,0.0,0.187437,0.00209,-0.012276,0.010369,-0.004155,0.000639,0.0,0.0,0.286747,-0.01983,0.000184,-8e-05,4e-06,3e-06,0.0,0.0,0.0,0.0,0.0,0.0,0.0,0.0,0.0,0.0,0.0,0.0,0.0,0.0,0.0,0.0
2.0,0.69003,0.686712,0.155261,0.004908,-0.012639,0.008922,-0.003144,0.000437,0.953253,0.897035,0.171986,-0.019982,0.000149,-2.3e-05,-1.8e-05,6e-06,0.0,0.0,0.0,0.0,0.0,0.0,0.0,0.0,0.0,0.0,0.0,0.0,0.0,0.0,0.0,0.0
2.0,2.66175,1.268092,0.12914,0.003657,-0.010945,0.008156,-0.002985,0.000426,3.276666,1.347355,0.052206,-0.018006,-0.002578,0.001766,-0.000605,8.2e-05,0.0,0.0,0.0,0.0,0.0,0.0,0.0,0.0,0.0,0.0,0.0,0.0,0.0,0.0,0.0,0.0
2.0,5.693175,1.748504,0.129658,0.027209,-0.071013,0.047998,-0.016366,0.002219,6.023187,1.319467,-0.091517,-0.054125,0.085004,-0.057456,0.019587,-0.002655,0.0,0.0,0.0,0.0,0.0,0.0,0.0,0.0,0.0,0.0,0.0,0.0,0.0,0.0,0.0,0.0
2.0,9.562815,2.012908,-0.028649,-0.0367,-0.008325,0.005798,-0.002017,0.000278,8.298279,0.998811,-0.04942,-0.000528,0.074878,-0.050901,0.017419,-0.002367,0.0,0.0,0.0,0.0,0.0,0.0,0.0,0.0,0.0,0.0,0.0,0.0,0.0,0.0,0.0,0.0
2.0,13.139196,1.392632,-0.368902,-0.117967,0.271357,-0.183449,0.062563,-0.008484,10.475019,1.402843,0.344797,0.113233,-0.203985,0.137689,-0.046899,0.006353,0.0,0.0,0.0,0.0,0.0,0.0,0.0,0.0,0.0,0.0,0.0,0.0,0.0,0.0,0.0,0.0
2.0,14.894523,0.720188,0.2517,0.238069,-0.31192,0.209972,-0.071389,0.009658,14.519754,2.469963,0.106537,-0.029251,-0.041965,0.028261,-0.009502,0.001261,0.0,0.0,0.0,0.0,0.0,0.0,0.0,0.0,0.0,0.0,0.0,0.0,0.0,0.0,0.0,0.0
2.0,17.641998,2.020232,0.282763,0.042623,-0.110462,0.075316,-0.025799,0.003505,19.43802,2.203643,-0.267771,-0.100687,0.080607,-0.055387,0.019176,-0.002637,0.0,0.0,0.0,0.0,0.0,0.0,0.0,0.0,0.0,0.0,0.0,0.0,0.0,0.0,0.0,0.0
2.0,22.59477,2.770088,0.030686,-0.150734,0.081208,-0.05531,0.018929,-0.002569,22.37571,0.573195,-0.486395,0.078298,-0.068049,0.044004,-0.014422,0.001885,0.0,0.0,0.0,0.0,0.0,0.0,0.0,0.0,0.0,0.0,0.0,0.0,0.0,0.0,0.0,0.0
2.0,27.46377,1.741336,-0.63516,-0.223614,0.426793,-0.288843,0.09859,-0.013379,21.84057,-1.014601,-0.409265,0.035179,0.263247,-0.178323,0.06095,-0.008286,0.0,0.0,0.0,0.0,0.0,0.0,0.0,0.0,0.0,0.0,0.0,0.0,0.0,0.0,0.0,0.0
