duration,x^0,x^1,x^2,x^3,x^4,x^5,x^6,x^7,y^0,y^1,y^2,y^3,y^4,y^5,y^6,y^7,z^0,z^1,z^2,z^3,z^4,z^5,z^6,z^7,yaw^0,yaw^1,yaw^2,yaw^3,yaw^4,yaw^5,yaw^6,yaw^7
1.56,-0.0,0.0,0.115567,-0.020981,-0.001909,0.001852,-0.00089,0.00017,-0.0,0.0,-0.009696,0.004971,0.0,-0.0,0.0,-0.0,0.0,0.0,0.0,0.0,0.0,0.0,0.0,0.0,0.0,0.0,0.0,0.0,0.0,0.0,0.0,0.0
1.6,0.19838,0.201058,0.026517,-0.124747,0.234264,-0.200177,0.082208,-0.013224,-0.004724,0.006041,-0.007443,0.16385,-0.381643,0.358874,-0.156463,0.026331,0.0,0.0,0.0,0.0,0.0,0.0,0.0,0.0,0.0,0.0,0.0,0.0,0.0,0.0,0.0,0.0
1.6,0.53748,0.225684,-0.031118,0.259569,-0.658367,0.7181,-0.345959,0.061593,0.000739,-0.004139,-0.032094,0.234535,-0.510196,0.543691,-0.26455,0.047927,0.0,0.0,0.0,0.0,0.0,0.0,0.0,0.0,0.0,0.0,0.0,0.0,0.0,0.0,0.0,0.0
1.6,0.94641,0.331267,0.026038,-0.052991,0.079822,-0.10154,0.052088,-0.008801,0.078113,0.135529,0.01205,-0.012524,0.012347,-0.042722,0.026431,-0.00439,0.0,0.0,0.0,0.0,0.0,0.0,0.0,0.0,0.0,0.0,0.0,0.0,0.0,0.0,0.0,0.0
1.6,1.422083,0.231658,-0.072286,0.166168,-0.259618,0.222023,-0.095391,0.016258,0.233062,0.027614,-0.078353,0.177106,-0.27681,0.236753,-0.101735,0.017342,0.0,0.0,0.0,0.0,0.0,0.0,0.0,0.0,0.0,0.0,0.0,0.0,0.0,0.0,0.0,0.0
1.6,1.750986,0.206046,-0.022027,-0.021605,0.049688,-0.040528,0.016854,-0.002805,0.229218,-0.004234,-0.019622,0.003281,0.005117,-0.00295,0.000863,-9.8e-05,0.0,0.0,0.0,0.0,0.0,0.0,0.0,0.0,0.0,0.0,0.0,0.0,0.0,0.0,0.0,0.0
1.6,2.043905,0.186641,-0.00344,0.196481,-0.444006,0.409488,-0.176414,0.029426,0.200089,-0.011869,0.007126,0.076492,-0.154576,0.135333,-0.056674,0.009276,0.0,0.0,0.0,0.0,0.0,0.0,0.0,0.0,0.0,0.0,0.0,0.0,0.0,0.0,0.0,0.0
1.6,2.352621,0.184911,0.003585,-0.054222,0.198091,-0.229898,0.11074,-0.019364,0.216855,0.02417,0.02377,-0.135471,0.348911,-0.387136,0.188915,-0.033934,0.0,0.0,0.0,0.0,0.0,0.0,0.0,0.0,0.0,0.0,0.0,0.0,0.0,0.0,0.0,0.0
1.6,2.661226,0.185224,-0.015179,0.05395,-0.097363,0.099167,-0.0473,0.008291,0.247241,-0.00902,0.013911,-0.062633,0.19072,-0.205945,0.105846,-0.020585,0.0,0.0,0.0,0.0,0.0,0.0,0.0,0.0,0.0,0.0,0.0,0.0,0.0,0.0,0.0,0.0
1.6,2.970457,0.203137,0.009756,-0.044867,0.073411,-0.063254,0.027391,-0.004706,0.32549,0.172566,0.085708,-0.021546,-0.027718,0.023724,-0.010199,0.001739,0.0,0.0,0.0,0.0,0.0,0.0,0.0,0.0,0.0,0.0,0.0,0.0,0.0,0.0,0.0,0.0
1.6,3.28775,0.190454,0.011596,0.023258,-0.04558,0.037724,-0.015862,0.002664,0.675435,0.167178,-0.107514,-0.012991,0.063968,-0.05381,0.022871,-0.003869,0.0,0.0,0.0,0.0,0.0,0.0,0.0,0.0,0.0,0.0,0.0,0.0,0.0,0.0,0.0,0.0
1.6,3.61966,0.210451,0.002049,-0.099065,0.24073,-0.239164,0.107062,-0.018312,0.749312,-0.00729,-0.013737,0.217871,-0.445427,0.392745,-0.164695,0.026937,0.0,0.0,0.0,0.0,0.0,0.0,0.0,0.0,0.0,0.0,0.0,0.0,0.0,0.0,0.0,0.0
