duration,x^0,x^1,x^2,x^3,x^4,x^5,x^6,x^7,y^0,y^1,y^2,y^3,y^4,y^5,y^6,y^7,z^0,z^1,z^2,z^3,z^4,z^5,z^6,z^7,yaw^0,yaw^1,yaw^2,yaw^3,yaw^4,yaw^5,yaw^6,yaw^7
1.96,0.0,0.0,0.017352,0.000545,0.000499,-0.000334,0.000104,-1.2e-05,-0.0,-0.0,-0.07449,0.011551,5.1e-05,-4.2e-05,1.7e-05,-3e-06,0.0,0.0,0.0,0.0,0.0,0.0,0.0,0.0,0.0,0.0,0.0,0.0,0.0,0.0,0.0,0.0
2.0,0.073026,0.077971,0.002313,-0.05037,0.071584,-0.048304,0.016446,-0.002227,-0.198981,-0.158681,-0.021066,-0.037632,0.062546,-0.042311,0.014434,-0.001958,0.0,0.0,0.0,0.0,0.0,0.0,0.0,0.0,0.0,0.0,0.0,0.0,0.0,0.0,0.0,0.0
2.0,0.202392,0.069087,0.013195,-0.038312,0.057196,-0.038849,0.013283,-0.001804,-0.581668,-0.183793,0.010008,-0.079359,0.117379,-0.079561,0.027178,-0.003689,0.0,0.0,0.0,0.0,0.0,0.0,0.0,0.0,0.0,0.0,0.0,0.0,0.0,0.0,0.0,0.0
2.0,0.378072,0.126619,0.046769,-0.009203,-0.003803,0.002424,-0.000794,0.000104,-0.944876,-0.139317,0.051697,-0.044587,0.049925,-0.034028,0.011667,-0.001588,0.0,0.0,0.0,0.0,0.0,0.0,0.0,0.0,0.0,0.0,0.0,0.0,0.0,0.0,0.0,0.0
2.0,0.724059,0.169627,-0.007938,0.040595,-0.05837,0.039394,-0.013417,0.001817,-1.120071,-0.063573,0.017167,0.011167,-0.024673,0.016527,-0.005602,0.000756,0.0,0.0,0.0,0.0,0.0,0.0,0.0,0.0,0.0,0.0,0.0,0.0,0.0,0.0,0.0,0.0
2.0,1.05696,0.146647,-0.012717,0.043126,-0.058845,0.039894,-0.013629,0.00185,-1.216814,-0.065173,-0.009891,0.045894,-0.06449,0.043622,-0.014881,0.002018,0.0,0.0,0.0,0.0,0.0,0.0,0.0,0.0,0.0,0.0,0.0,0.0,0.0,0.0,0.0,0.0
2.0,1.344052,0.133803,-0.004654,0.04229,-0.058444,0.039644,-0.013548,0.00184,-1.349546,-0.081017,-0.008706,0.049802,-0.068728,0.046621,-0.015934,0.002164,0.0,0.0,0.0,0.0,0.0,0.0,0.0,0.0,0.0,0.0,0.0,0.0,0.0,0.0,0.0,0.0
2.0,1.633261,0.147083,0.002161,0.051255,-0.078412,0.053204,-0.018187,0.00247,-1.498565,-0.077689,-0.008634,0.033888,-0.053867,0.036624,-0.012535,0.001704,0.0,0.0,0.0,0.0,0.0,0.0,0.0,0.0,0.0,0.0,0.0,0.0,0.0,0.0,0.0,0.0
2.0,1.946271,0.132579,-0.036012,0.034367,-0.038176,0.026008,-0.008914,0.001213,-1.691439,-0.142721,-0.046154,0.0287,-0.022079,0.015181,-0.005243,0.000718,0.0,0.0,0.0,0.0,0.0,0.0,0.0,0.0,0.0,0.0,0.0,0.0,0.0,0.0,0.0,0.0
2.0,2.148509,0.091879,-0.009901,-0.022598,0.026758,-0.017959,0.006094,-0.000823,-2.043,-0.159977,0.017159,-0.018153,0.036991,-0.025003,0.008535,-0.001159,0.0,0.0,0.0,0.0,0.0,0.0,0.0,0.0,0.0,0.0,0.0,0.0,0.0,0.0,0.0,0.0
